<?xml version="1.0" encoding="UTF-8" standalone="no"?>
<!-- Generator: Adobe Illustrator 15.0.2, SVG Export Plug-In . SVG Version: 6.00 Build 0)  -->
<!DOCTYPE svg  PUBLIC '-//W3C//DTD SVG 1.1//EN'  'http://www.w3.org/Graphics/SVG/1.1/DTD/svg11.dtd' [
	<!ENTITY ns_flows "http://ns.adobe.com/Flows/1.0/">
	<!ENTITY ns_extend "http://ns.adobe.com/Extensibility/1.0/">
	<!ENTITY ns_ai "http://ns.adobe.com/AdobeIllustrator/10.0/">
	<!ENTITY ns_graphs "http://ns.adobe.com/Graphs/1.0/">
	<!ENTITY ns_vars "http://ns.adobe.com/Variables/1.0/">
	<!ENTITY ns_imrep "http://ns.adobe.com/ImageReplacement/1.0/">
	<!ENTITY ns_sfw "http://ns.adobe.com/SaveForWeb/1.0/">
	<!ENTITY ns_custom "http://ns.adobe.com/GenericCustomNamespace/1.0/">
	<!ENTITY ns_adobe_xpath "http://ns.adobe.com/XPath/1.0/">
	<!ENTITY st0 "fill:url(#SVGID_2_);">
	<!ENTITY st1 "fill-rule:evenodd;clip-rule:evenodd;fill:url(#SVGID_1_);">
]>
<svg style="enable-background:new 0 0 600 600" xmlns="http://www.w3.org/2000/svg" xml:space="preserve" version="1.1" y="0px" x="0px" xmlns:xlink="http://www.w3.org/1999/xlink" viewBox="0 0 600 600">
<switch>
	<foreignObject y="0" x="0" height="1" width="1" requiredExtensions="http://ns.adobe.com/AdobeIllustrator/10.0/">
	</foreignObject>
	<g>
						<linearGradient id="b" y2="60.083" gradientUnits="userSpaceOnUse" x2="300" y1="539.92" x1="300">
						<stop stop-color="#FFD900" offset="0"/>
						<stop stop-color="#FEE116" offset=".45399"/>
						<stop stop-color="#FFEE07" offset=".45399"/>
						<stop stop-color="#FFF778" offset="1"/>
					</linearGradient>
					<path fill-rule="evenodd" clip-rule="evenodd" d="M71.0664062,539.9169922c-13.3696289,0-27.0751953-6.4726562-37.6020508-17.7578125       c-4.8852539-5.2333984-8.7797852-11.1425781-11.5786133-17.5683594       c-3.1308594-7.2060547-4.7216797-14.6767578-4.7216797-22.1884766c0-10.5078125,3.2119141-20.7832031,9.2885742-29.7158203       c60.3676758-88.6572266,98.4633789-152.034668,138.7958984-219.1337891l0.2426758-0.4038086       c26.0664062-43.3764648,53.0195312-88.2275391,88.5380859-144.2480469       c5.5200195-8.7099609,12.3500977-15.6538086,20.3017578-20.6411133       c8.5141602-5.3525391,18.0449219-8.1767578,27.5761719-8.1767578c9.4648438,0,18.7988281,2.7900391,26.9941406,8.0678711       c7.9580078,5.1206055,14.7294922,12.3793945,20.1308594,21.578125       c45.2470703,76.9238281,82.3662109,134.9365234,118.2636719,191.0385742l0.4111328,0.6435547       c34.7441406,54.3310547,67.5605469,105.6484375,106.4404297,171.6123047       c5.7636719,9.7919922,8.6884766,20.0791016,8.6884766,30.5664062c0,7.7988281-1.6298828,15.3925781-4.8427734,22.5712891       c-2.9121094,6.5195312-6.9824219,12.4042969-12.1044922,17.5029297       c-10.3681641,10.3310547-23.8984375,16.2529297-37.1269531,16.2529297H71.0664062z" fill="url(#b)"/>
					<path d="M301.9072266,77.0830078c6.1933594,0,12.3447266,1.8535156,17.8007812,5.3671875       c5.6904297,3.6616211,10.6240234,9.0068359,14.6777344,15.9091797       c45.4023438,77.1870117,82.609375,135.3359375,118.5859375,191.5634766l0.4121094,0.6450195       c34.6582031,54.1977539,67.3955078,105.3891602,106.1074219,171.0698242       c4.2695312,7.2539062,6.3447266,14.4345703,6.3447266,21.9521484c0,5.3886719-1.1298828,10.6464844-3.3710938,15.6523438       c-2.0507812,4.5917969-4.9345703,8.7548828-8.5800781,12.3847656       c-7.0957031,7.0693359-16.4873047,11.2900391-25.1230469,11.2900391H71.0664062       c-8.5454102,0-17.9555664-4.6181641-25.1782227-12.3613281c-3.5600586-3.8134766-6.3920898-8.1044922-8.4033203-12.7216797       c-2.2036133-5.0732422-3.3208008-10.2646484-3.3208008-15.4316406c0-7.0830078,2.1938477-14.0517578,6.3359375-20.1416016       c60.644043-89.0625,98.8608398-152.6425781,139.3217773-219.9550781l0.2416992-0.4018555       c26.0170898-43.293457,52.9199219-88.0610352,88.3261719-143.9047852       c4.1503906-6.5483398,9.1884766-11.7084961,15.003418-15.355957       C289.1791992,79.0058594,295.581543,77.0830078,301.9072266,77.0830078 M301.9072266,43.0830078       c-12.730957,0-25.3842773,3.71875-36.609375,10.7753906c-10.1157227,6.3447266-18.7421875,15.078125-25.6259766,25.9394531       c-35.2963867,55.6699219-62.4755859,100.8691406-88.7509766,144.5927734       c-40.2729492,67-78.3022461,130.2910156-138.5244141,218.734375       c-7.9956055,11.7539062-12.2324219,25.3378906-12.2324219,39.2773438c0,9.8730469,2.0717773,19.6220703,6.1362305,28.9785156       c3.5751953,8.2070312,8.5317383,15.7314453,14.7329102,22.375       c13.7368164,14.7255859,31.9804688,23.1611328,50.0332031,23.1611328h457.6953125       c17.6884766,0,35.59375-7.7265625,49.1210938-21.2050781c6.6152344-6.5859375,11.8671875-14.1884766,15.6259766-22.6044922       c4.1972656-9.375,6.3271484-19.3076172,6.3271484-29.5175781c0-13.5634766-3.7197266-26.7558594-11.0429688-39.1982422       c-39.1914062-66.4931641-72.2158203-118.1142578-107.1777344-172.7861328       c-35.8837891-56.0820312-72.9814453-114.0800781-117.9238281-190.484375       c-6.7773438-11.5419922-15.3955078-20.7060547-25.5849609-27.2626953       C327.1494141,46.8017578,314.6279297,43.0830078,301.9072266,43.0830078L301.9072266,43.0830078z"/>
						<linearGradient id="a" y2="253.24" gradientUnits="userSpaceOnUse" x2="300.58" y1="471.06" x1="300.58">
						<stop stop-color="#0F0F0F" offset="0"/>
						<stop stop-color="#353C43" offset=".50920"/>
						<stop stop-color="#0F0F0F" offset=".50920"/>
						<stop stop-color="#353C43" offset="1"/>
					</linearGradient>
					<path d="M240.3671875,471.0625c-14.5683594,0-26.4208984-11.8515625-26.4208984-26.4189453       c0-14.5683594,11.8525391-26.4208984,26.4208984-26.4208984s26.4208984,11.8525391,26.4208984,26.4208984       C266.7880859,459.2109375,254.9355469,471.0625,240.3671875,471.0625z M371.2851562,465.8359375       c-1.0810547,0-2.1767578-0.0673828-3.2568359-0.2001953c-7.0029297-0.859375-13.2529297-4.3955078-17.5986328-9.9580078       c-4.3457031-5.5615234-6.265625-12.4824219-5.40625-19.4863281c1.625-13.2285156,12.8857422-23.2041016,26.1923828-23.2041016       c1.0791016,0,2.1738281,0.0673828,3.2529297,0.1992188c7.0039062,0.8603516,13.2548828,4.3964844,17.5996094,9.9580078       s6.2636719,12.4814453,5.4023438,19.4853516c-1.6230469,13.2294922-12.8808594,23.2060547-26.1845703,23.2060547       C371.2851562,465.8359375,371.2861328,465.8359375,371.2851562,465.8359375z M103.6938477,395.8876953       c10.9121094-0.4658203,22.2817383-0.9638672,33.6044922-1.4707031l2.8657227-0.1279297v-53.2041016l-1.9199219,0.078125       l3.7021484-5.8642578c49.2421875-2.4375,73.9287109-3.671875,77.3110352-3.8652344       c4.9643555,1.3359375,39.9711914,23.3730469,71.2988281,44.0107422l-0.5922852,7.3427734l-10.1269531,10.6650391       l12.1743164,39.9589844l1.1362305,0.5791016c1.5405273,0.7851562,3.1313477,1.734375,4.4033203,2.5957031       c-2.3994141,0.1660156-6.7827148,0.4316406-14.7338867,0.8554688       c-3.4458008-20.6279297-21.2163086-35.8466797-42.449707-35.8466797       c-22.6513672,0-41.3442383,17.6806641-42.9350586,39.9658203       c-38.4057617,1.7636719-82.8491211,3.7373047-126.1098633,5.5996094L103.6938477,395.8876953z M205.940918,338.515625       c-2.1533203,0-21.9697266,0.7695312-60.5820312,2.3525391l-2.8769531,0.1171875v53.1992188l3.1367188-0.1425781       c95.1738281-4.3349609,96.2241211-5.0712891,97.2402344-5.7832031       c3.644043-2.5703125,4.5688477-12.1464844,3.8129883-15.2578125       c-0.7700195-3.1601562-12.8120117-14.1298828-17.9536133-18.6992188       C210.956543,338.515625,207.3125,338.515625,205.940918,338.515625z M529.8310547,444.4248047       c-39.1523438-3.0869141-79.9169922-6.3701172-115.7451172-9.3203125       c-1.9570312-19.9863281-17.3828125-35.9423828-37.5917969-38.4208984       c-1.7548828-0.2158203-3.5351562-0.3242188-5.2910156-0.3242188c-19.3271484,0-36.3417969,13.1269531-41.4375,31.5761719       c-11.7324219-1.0634766-16.4433594-1.5625-18.3203125-1.7949219c-1.8339844-4.0634766-7.1650391-18.53125-11.078125-29.484375       l9.6386719-8.8554688l-0.5898438-11.2070312c15.3417969,3.0820312,16.0625,3.0966797,16.390625,3.0966797       c0.0019531,0,0.4912109,0,0.4912109,0l0.4824219-0.15625c0.6640625-0.2226562,0.8203125-0.2744141,16.5878906-13.1435547       l9.9365234,9.2138672l12.5302734-11.1113281l45.0751953,15.7666016l0.9501953-0.2998047       c0.96875-0.3046875,3.5097656-1.1025391,53.2041016-40.1601562l0.9111328,1.4707031       c-8.2119141,6.6503906-38.3525391,31.0527344-41.453125,33.4169922       c-1.6181641,1.2353516-2.5791016,2.8925781-2.7822266,4.7919922c-0.3398438,3.1894531,1.6142578,6.0644531,2.3574219,7.0273438       c0.8183594,1.4960938,2.140625,1.6113281,24.1611328,3.5253906       c12.7724609,1.1103516,30.2021484,2.5517578,50.4853516,4.1748047L529.8310547,444.4248047z M248.449707,307.1953125       l8.4360352-14.6235352l25.0268555,48.3686523L248.449707,307.1953125z M336.0537109,295.7324219l17.7919922-1.3925781       L321.875,337.9892578L336.0537109,295.7324219z M372.0830078,310.6455078l1.9775391,12.84375L351.828125,332.875       L372.0830078,310.6455078z M272.9316406,260.2978516l21.2070312,9.4262695l-2.9443359,40.9418945L272.9316406,260.2978516z        M318.6220703,253.2441406l12.6806641,8.121582l-12.3789062,20.7363281L318.6220703,253.2441406z" fill="url(#a)"/>
					<path d="M321.6796875,258.7651367l5.5576172,3.559082l-5.4248047,9.0874023L321.6796875,258.7651367        M278.1552734,265.902832l12.840332,5.7070312l-1.7827148,24.7895508L278.1552734,265.902832 M347.5634766,297.8408203       l-16.7050781,22.8066406l7.4082031-22.0791016L347.5634766,297.8408203 M256.7426758,298.8232422l13.496582,26.0849609       l-18.0458984-18.1982422L256.7426758,298.8232422 M370.0732422,317.3066406l0.6660156,4.328125l-7.4931641,3.1630859       L370.0732422,317.3066406 M218.8129883,334.4628906c6.2788086,2.4677734,38.7963867,22.9033203,68.6098633,42.5107422       l-0.3642578,4.515625l-8.1933594,8.6298828l-2.4072266,2.5351562l1.0185547,3.3447266l11.293457,37.0673828       l0.3134766,1.0283203c-1.1499023,0.0644531-2.4213867,0.1347656-3.8271484,0.2109375       c-4.7055664-20.7138672-23.0922852-35.7109375-44.8891602-35.7109375c-23.3208008,0-42.71875,17.5195312-45.6591797,40.0878906       c-36.1025391,1.6552734-77.3276367,3.4863281-117.7900391,5.2333984l28.4736328-45.0986328       c10.2353516-0.4375,20.9975586-0.9091797,32.0410156-1.4033203l2.0493164-0.0917969v0.0019531l2.9931641-0.1357422       l0.6889648-0.03125V397.15625l2.5908203-0.1171875c26.3500977-1.2001953,49.1303711-2.3095703,65.878418-3.2080078       c30.8623047-1.6542969,31.1000977-1.8212891,32.9619141-3.1259766       c5.027832-3.5458984,5.9355469-14.5292969,4.9907227-18.4169922c-0.3945312-1.6201172-1.0932617-3.1240234-6.9741211-9.0410156       c-3.309082-3.3291016-7.6469727-7.4072266-11.9008789-11.1875       c-18.6142578-16.5439453-22.6186523-16.5439453-24.7700195-16.5439453c-1.0654297,0-5.8447266,0.1416016-30.7280273,1.1376953       C200.890625,335.3779297,215.0581055,334.6660156,218.8129883,334.4628906 M366.5068359,367.9072266l42.4726562,14.8544922       l1.8808594,0.6582031l1.9003906-0.5976562c0.6425781-0.2021484,1.4638672-0.4599609,5.9980469-3.6787109       c0,0.0058594-0.0009766,0.0117188-0.0009766,0.0175781c-0.4375,4.1025391,1.7763672,7.6025391,2.8554688,9.0361328       c1.4902344,2.4902344,3.5185547,2.6904297,10.3828125,3.3671875c3.703125,0.3652344,9.0878906,0.8554688,16.0029297,1.4560547       c12.4609375,1.0830078,29.3505859,2.4814453,48.9931641,4.0556641l27.1708984,43.8916016       c-36.4365234-2.8789062-73.9755859-5.9033203-107.4033203-8.6533203       c-3.0830078-20.203125-19.1298828-36.0605469-39.9003906-38.6083984c-1.875-0.2304688-3.7783203-0.3466797-5.65625-0.3466797       c-19.8222656,0-37.3720703,12.9091797-43.5917969,31.3671875c-7.6210938-0.6972656-11.8017578-1.1162109-14.0927734-1.3662109       c-1.9384766-4.6933594-5.90625-15.3818359-9.65625-25.8408203l7.1328125-6.5527344l2.0810547-1.9121094l-0.1484375-2.8222656       l-0.3125-5.9384766c12.0166016,2.3964844,12.5917969,2.3964844,13.1953125,2.3964844l1.0009766-0.0019531l0.9277344-0.3115234       c1.2392578-0.4150391,1.3398438-0.4492188,15.5039062-12.0117188l6.0263672,5.5888672l3.9902344,3.7001953l4.0703125-3.6103516       L366.5068359,367.9072266 M371.2148438,415.9873047c0.9580078,0,1.9296875,0.0595703,2.8876953,0.1767578       c6.2089844,0.7626953,11.75,3.8974609,15.6015625,8.8271484s5.5517578,11.0644531,4.7890625,17.2744141       c-1.4394531,11.7265625-11.4160156,20.5703125-23.2080078,20.5703125c-0.9589844,0-1.9316406-0.0605469-2.8916016-0.1777344       c-6.2080078-0.7617188-11.7480469-3.8964844-15.6005859-8.8271484       c-3.8515625-4.9306641-5.5537109-11.0654297-4.7919922-17.2734375       C349.4414062,424.8310547,359.421875,415.9873047,371.2148438,415.9873047 M240.3671875,421.2226562       c12.9145508,0,23.4208984,10.5068359,23.4208984,23.4208984c0,12.9130859-10.5063477,23.4189453-23.4208984,23.4189453       s-23.4208984-10.5058594-23.4208984-23.4189453C216.9462891,431.7294922,227.4526367,421.2226562,240.3671875,421.2226562        M315.5634766,247.7231445l0.4726562,45.0698242l19.3330078-32.3857422L315.5634766,247.7231445L315.5634766,247.7231445z        M267.7084961,254.6933594l25.4677734,70.2392578l4.105957-57.0942383L267.7084961,254.6933594L267.7084961,254.6933594z        M257.0288086,286.3203125l-12.3227539,21.3603516l48.8798828,49.2919922L257.0288086,286.3203125L257.0288086,286.3203125z        M360.1289062,290.8388672l-26.2880859,2.0576172l-20.9482422,62.4335938L360.1289062,290.8388672L360.1289062,290.8388672z        M374.09375,303.9853516l-33.6835938,36.9667969l36.9707031-15.6083984L374.09375,303.9853516L374.09375,303.9853516z        M219.3925781,328.421875c-0.0180664,0-0.0351562,0.0009766-0.0517578,0.0019531       c-2.4594727,0.1552734-41.0493164,2.0722656-79.0991211,3.9560547l-7.5859375,12.015625       c1.5019531-0.0615234,3.0058594-0.1240234,4.5083008-0.1855469v47.2099609       c-11.8642578,0.53125-23.78125,1.0527344-35.1679688,1.5371094l-36.2695312,57.4462891       c45.590332-1.9570312,93.784668-4.0947266,134.5966797-5.9726562       c0.1147461-22.0195312,17.996582-39.8359375,40.0439453-39.8359375c20.7480469,0,37.8100586,15.7783203,39.8447266,35.9892578       c11.800293-0.6201172,19.1352539-1.0605469,20.4604492-1.2558594c7.4223633-1.09375-6.1625977-8.0107422-6.1625977-8.0107422       L283.2163086,394.25l9.652832-10.1660156l0.8198242-10.1679688       C293.6889648,373.9160156,224.7363281,328.421875,219.3925781,328.421875L219.3925781,328.421875z M145.4819336,391.0449219       v-47.1796875c30.2094727-1.2382812,57.9428711-2.3496094,60.4589844-2.3496094       c5.6977539,0,37.121582,29.3447266,37.815918,32.1933594c0.6923828,2.8505859-0.5410156,10.6269531-2.6196289,12.0927734       C240.1743164,386.4765625,194.4506836,388.8144531,145.4819336,391.0449219L145.4819336,391.0449219z M465.8486328,335.3671875       c-15.6816406,12.3378906-52.1113281,40.8574219-54.8886719,41.7314453l-45.7978516-16.0185547l-11.8125,10.4746094       l-9.8564453-9.1396484c0,0-17.3525391,14.1699219-17.6611328,14.2734375       c-0.0039062,0.0009766-0.0107422,0.0019531-0.0214844,0.0019531c-0.7822266,0-19.59375-3.8017578-19.59375-3.8017578       l0.71875,13.6591797l-10.0615234,9.2431641c0,0,11.2509766,31.6533203,12.6318359,33.0634766       c0.2021484,0.2080078,8.515625,1.0390625,22.5634766,2.3007812       c3.8896484-18.5478516,20.3183594-31.7958984,39.1337891-31.7958984c1.6269531,0,3.2695312,0.0986328,4.9257812,0.3017578       c19.7919922,2.4277344,34.4238281,18.9130859,35.1386719,38.2216797       c38.0810547,3.1396484,82.28125,6.6972656,124.2314453,9.9980469l-35.0029297-56.5429688       c-40.3125-3.2226562-73.6708984-6.0732422-73.8671875-6.46875c0,0-4.140625-4.8535156-0.2871094-7.7958984       c3.4003906-2.59375,38.8837891-31.3330078,43.5751953-35.1347656L465.8486328,335.3671875L465.8486328,335.3671875z        M371.2158203,409.9873047c-14.6503906,0-27.3378906,10.9257812-29.1699219,25.8388672       c-1.9794922,16.1259766,9.4921875,30.8085938,25.6171875,32.7871094       c1.2167969,0.1494141,2.4267578,0.2226562,3.6220703,0.2226562c14.6494141,0,27.3339844-10.9316406,29.1630859-25.8398438       c1.9824219-16.1269531-9.4873047-30.8066406-25.6142578-32.7871094       C373.6181641,410.0595703,372.4101562,409.9873047,371.2158203,409.9873047L371.2158203,409.9873047z M240.3671875,415.2226562       c-16.2485352,0-29.4208984,13.171875-29.4208984,29.4208984c0,16.2470703,13.1723633,29.4189453,29.4208984,29.4189453       c16.2470703,0,29.4208984-13.171875,29.4208984-29.4189453       C269.7880859,428.3945312,256.6142578,415.2226562,240.3671875,415.2226562L240.3671875,415.2226562z"/>
	</g>
</switch>
</svg>
