<?xml version="1.0" encoding="UTF-8" standalone="no"?>
<!-- Generator: Adobe Illustrator 15.0.2, SVG Export Plug-In . SVG Version: 6.00 Build 0)  -->
<!DOCTYPE svg  PUBLIC '-//W3C//DTD SVG 1.1//EN'  'http://www.w3.org/Graphics/SVG/1.1/DTD/svg11.dtd' [
	<!ENTITY ns_flows "http://ns.adobe.com/Flows/1.0/">
	<!ENTITY ns_extend "http://ns.adobe.com/Extensibility/1.0/">
	<!ENTITY ns_ai "http://ns.adobe.com/AdobeIllustrator/10.0/">
	<!ENTITY ns_graphs "http://ns.adobe.com/Graphs/1.0/">
	<!ENTITY ns_vars "http://ns.adobe.com/Variables/1.0/">
	<!ENTITY ns_imrep "http://ns.adobe.com/ImageReplacement/1.0/">
	<!ENTITY ns_sfw "http://ns.adobe.com/SaveForWeb/1.0/">
	<!ENTITY ns_custom "http://ns.adobe.com/GenericCustomNamespace/1.0/">
	<!ENTITY ns_adobe_xpath "http://ns.adobe.com/XPath/1.0/">
	<!ENTITY st0 "fill:url(#SVGID_2_);">
	<!ENTITY st1 "fill:url(#SVGID_5_);">
	<!ENTITY st2 "fill:url(#SVGID_6_);">
	<!ENTITY st3 "fill:url(#SVGID_7_);">
	<!ENTITY st4 "fill:url(#SVGID_8_);">
	<!ENTITY st5 "fill-rule:evenodd;clip-rule:evenodd;">
	<!ENTITY st6 "fill-rule:evenodd;clip-rule:evenodd;fill:url(#SVGID_1_);">
	<!ENTITY st7 "fill-rule:evenodd;clip-rule:evenodd;fill:url(#SVGID_3_);">
	<!ENTITY st8 "fill-rule:evenodd;clip-rule:evenodd;fill:url(#SVGID_4_);">
]>
<svg style="enable-background:new 0 0 600 600" xmlns="http://www.w3.org/2000/svg" xml:space="preserve" version="1.1" y="0px" x="0px" xmlns:xlink="http://www.w3.org/1999/xlink" viewBox="0 0 600 600">
<switch>
	<foreignObject y="0" x="0" height="1" width="1" requiredExtensions="http://ns.adobe.com/AdobeIllustrator/10.0/">
	</foreignObject>
	<g>
						<linearGradient id="h" y2="22.036" gradientUnits="userSpaceOnUse" x2="300" y1="571.79" x1="300">
						<stop stop-color="#EC2100" offset=".25"/>
						<stop stop-color="#FD5135" offset="1"/>
					</linearGradient>
					<path fill-rule="evenodd" clip-rule="evenodd" d="M305.6318359,571.7890625       c-22.0126953-18.609375-71.5556641-61.4794922-125.0488281-114.3408203       c-5.574707-5.5097656-11.2675781-10.9960938-16.7729492-16.3027344       c-49.3266602-47.5429688-95.9174805-92.4492188-95.9174805-187.0029297       c0-61.9990234,24.1430664-120.2866211,67.9819336-164.1254883S238.0009766,22.0351562,300,22.0351562       s120.2861328,24.1430664,164.125,67.9819336s67.9824219,102.1264648,67.9824219,164.1254883       c0,94.7988281-44.1396484,137.2099609-95.2480469,186.3183594       c-5.7333984,5.5087891-11.6621094,11.2050781-17.5126953,16.9726562       C365.3662109,510.6494141,324.2900391,552.5898438,305.6318359,571.7890625z" fill="url(#h)"/>
					<path d="M300,39.0351562c29.0546875,0,57.2226562,5.6826172,83.7197266,16.8901367       c25.6113281,10.8320312,48.6191406,26.3466797,68.3847656,46.112793       c19.765625,19.765625,35.2802734,42.7734375,46.1132812,68.3847656       c11.2070312,26.4975586,16.8896484,54.6650391,16.8896484,83.7197266       c0,40.0048828-8.2548828,72.2041016-25.9775391,101.3330078       c-16.3837891,26.9277344-39.5371094,49.1738281-64.0498047,72.7275391       c-5.7714844,5.5458984-11.7402344,11.2802734-17.6679688,17.1240234       c-45.1015625,44.4619141-81.2363281,81.09375-102.8525391,103.2070312       c-25.0771484-21.5673828-67.1010742-58.7832031-112.0268555-103.1777344       c-5.6503906-5.5839844-11.3823242-11.1083984-16.9248047-16.4511719       c-24.4228516-23.5390625-47.4907227-45.7734375-64.159668-73.0341797       c-18.1176758-29.6308594-26.5556641-61.9555664-26.5556641-101.7285156       c0-29.0546875,5.6826172-57.222168,16.8901367-83.7197266c10.8320312-25.6113281,26.3466797-48.6191406,46.112793-68.3847656       c19.765625-19.7661133,42.7734375-35.2807617,68.3842773-46.112793       C242.777832,44.7177734,270.9453125,39.0351562,300,39.0351562 M300,5.0351562       c-137.5800781,0-249.1074219,111.5273438-249.1074219,249.1074219       c0,112.9394531,62.0859375,160.3964844,117.7412109,215.3974609       c73.2197266,72.3544922,138.2255859,125.4248047,138.2255859,125.4248047s49.3515625-51.4189453,124.421875-125.4248047       c57.2207031-56.4091797,117.8261719-101.9072266,117.8261719-215.3974609       C549.1074219,116.5625,437.5800781,5.0351562,300,5.0351562L300,5.0351562z"/>
						<linearGradient id="g" y2="81.607" gradientUnits="userSpaceOnUse" x2="302.65" y1="194.07" x1="302.65">
						<stop stop-color="#1E2226" offset="0"/>
						<stop offset=".49080"/>
						<stop stop-color="#012DC7" offset=".49693"/>
						<stop stop-color="#0343D7" offset="1"/>
					</linearGradient>
					<path d="M302.6777344,194.065918c-16.609375,0-32.1577148-4.0551758-43.78125-11.4179688       c-10.9594727-6.9423828-16.9951172-15.9501953-16.9951172-25.3642578c0-0.0839844,0.0004883-0.1679688,0.0014648-0.2519531       l0.0913086-0.2832031l-0.6767578-21.2504883l-26.3432617-40.0869141       c0.3046875,0.0009766,0.6157227,0.0014648,0.9335938,0.0014648       c18.9243164-0.0004883,55.2519531-1.8134766,88.0629883-13.8056641       c32.7324219,12.652832,66.8085938,14.5639648,84.3828125,14.5639648c0.6865234,0,1.3457031-0.0029297,1.9755859-0.0083008       l-26.5996094,40.3276367l-0.7119141,22.5708008l0.0195312,0.0209961       C361.5244141,178.5288086,335.0292969,194.065918,302.6777344,194.065918z" fill="url(#g)"/>
					<path d="M303.9248047,86.5996094c29.15625,10.9467773,59.0654297,13.6826172,77.7597656,14.1660156       l-21.1337891,32.0405273l-1.4599609,2.2124023l-0.0830078,2.6484375l-0.609375,19.3227539l-0.0673828,2.1425781       c-1.6933594,16.5766602-26.4892578,30.2514648-55.6533203,30.2514648c-15.7333984,0-30.3920898-3.796875-41.2753906-10.690918       c-5.4506836-3.4526367-14.5385742-10.7241211-14.8125-20.9355469l0.1103516-0.340332l-0.0522461-1.6313477       l-0.6088867-19.1171875l-0.0839844-2.6386719l-1.449707-2.2060547l-20.9135742-31.824707       C243.6118164,99.5078125,274.9238281,96.8720703,303.9248047,86.5996094 M304.0166016,76.5952148       c-33.0991211,12.5043945-70.7285156,14.1352539-88.1088867,14.1352539c-6.1337891,0-9.7456055-0.203125-9.7456055-0.203125       l30.5175781,46.4389648l0.6088867,19.1176758c-0.0166016,0.0512695-0.0336914,0.0991211-0.0493164,0.1499023       c-0.0131836,0.3496094-0.0200195,0.699707-0.0200195,1.0498047c0,22.8999023,29.3056641,41.4643555,65.4584961,41.4643555       c36.1513672,0,65.109375-18.5229492,65.109375-41.4228516c0-0.0063477-0.0107422-0.0200195-0.0292969-0.0400391       l0.609375-19.3227539l30.8505859-46.7714844c0,0-4.0361328,0.2978516-10.8642578,0.2978516       C371.2763672,91.4887695,336.7167969,89.6279297,304.0166016,76.5952148L304.0166016,76.5952148z"/>
				<path clip-rule="evenodd" d="M373.8291016,440.0439453V334.4238281h-7.0136719v108.3876953      c-15.4404297,5.6220703-35.2880859,9.9248047-59.9277344,9.9248047c-30.4208984,0-54.8442383-5.9980469-73.1850586-13.1542969      V334.4238281h-7.0048828v102.25c-22.5874023-9.9902344-34.0463867-20.9306641-34.0463867-20.9306641s0-86.2910156,0-106.8349609      c0-20.5390625,23.8408203-33.6923828,39.4511719-33.6923828c15.6191406,0,129.0341797,0,147.1132812,0      c18.0761719,0,30.4013672,13.1533203,30.4013672,30.40625c0,17.2675781,0,110.9501953,0,110.9501953      S398.328125,429.6210938,373.8291016,440.0439453L373.8291016,440.0439453z" fill-rule="evenodd"/>
					<linearGradient id="f" y2="287.99" gradientUnits="userSpaceOnUse" x2="301.14" y1="439.96" x1="301.14">
					<stop stop-color="#012DC7" offset="0"/>
					<stop stop-color="#0343D7" offset="1"/>
				</linearGradient>
				<path fill-rule="evenodd" clip-rule="evenodd" d="M246.4790039,430.6191406c0-12.7353516,0-25.46875,0-38.2041016      c0-15.5664062,0-31.1328125,0-46.6992188c0-3.6357422,0-7.2705078,0-10.9052734      c0-3.2167969-0.9882812-6.2919922-3.1137695-8.7460938c-1.6899414-1.9541016-3.9658203-3.3720703-6.4677734-4.015625      c-1.6552734-0.4267578-3.3203125-0.4013672-5.0112305-0.4013672c-3.84375,0-7.7734375-0.3642578-11.28125,1.5419922      c-4.1069336,2.2314453-6.6835938,6.6162109-6.6835938,11.28125c0,4.2226562,0,8.4433594,0,12.6650391      c0,19.0722656,0,38.1455078,0,57.2177734c0,3.7314453,0,7.4609375,0,11.1914062      c-2.6704102-1.6582031-5.2827148-3.4160156-7.7993164-5.2998047c-0.5454102-0.4091797-0.684082-0.4609375-0.684082-1.0761719      c0-0.3330078,0-0.6689453,0-1.0019531c0-1.9394531,0-3.8759766,0-5.8164062c0-6.2714844,0-12.5439453,0-18.8173828      c0-15.9882812,0-31.9765625,0-47.9638672c0-8.8779297,0-17.7558594,0-26.6318359      c0-5.1484375,3.0546875-9.5625,6.8178711-12.8173828c4.4912109-3.8876953,10.1743164-6.6435547,16.0166016-7.7353516      c2.4277344-0.4550781,4.828125-0.3925781,7.2773438-0.3925781c9.6464844,0,19.293457,0,28.9404297,0      c14.8535156,0,29.7070312,0,44.5605469,0c14.4462891,0,28.8935547,0,43.3398438,0c8.4267578,0,16.8515625,0,25.2783203,0      c5.6445312,0,11.2578125,1.1523438,15.1083984,5.671875c3.6640625,4.2998047,4.0625,9.6230469,4.0625,14.9628906      c0,11.9716797,0,23.9433594,0,35.9150391c0,15.6455078,0,31.2919922,0,46.9394531c0,4.9697266,0,9.9384766,0,14.9091797      c0,1.3964844,0,2.7929688,0,4.1904297c0,1.2255859-1.7158203,2.0800781-2.6152344,2.8027344      c-2.4433594,1.9638672-4.9941406,3.7910156-7.6171875,5.5039062c0-18.9755859,0-37.9501953,0-56.9257812      c0-7.4042969,0-14.8076172,0-22.2128906c0-1.6416016,0-3.2832031,0-4.9248047      c0-3.5400391-1.2119141-6.9023438-3.7441406-9.4345703c-1.8349609-1.8339844-4.2177734-3.0859375-6.7724609-3.5419922      c-1.5546875-0.2792969-3.15625-0.2001953-4.7304688-0.2001953c-3.9921875,0-7.9003906-0.2490234-11.4306641,2.0126953      c-3.6708984,2.3564453-5.8916016,6.4785156-5.8916016,10.8330078c0,0.9208984,0,1.8388672,0,2.7587891      c0,12.8417969,0,25.6826172,0,38.5244141c0,15.7314453,0,31.4638672,0,47.1982422c0,2.5458984,0,5.0917969,0,7.6367188      c0,0.8964844,0,1.7939453,0,2.6894531c0,0.6142578-2.8759766,1.0791016-3.5117188,1.2480469      c-1.7138672,0.4570312-3.4355469,0.8808594-5.1650391,1.2763672      c-14.0615234,3.2099609-28.5224609,4.3837891-42.9267578,4.0878906      C283.465332,439.5263672,264.5048828,436.6103516,246.4790039,430.6191406" fill="url(#f)"/>
				<path clip-rule="evenodd" d="M303.7617188,208.3295898c29.2617188,0,54.7119141-11.2421875,67.7431641-27.7939453      c2.0234375,6.5810547,3.125,13.5673828,3.125,20.8076172C374.6298828,240.3652344,342.9951172,272,303.9677734,272      c-39.0151367,0-70.6518555-31.6347656-70.6518555-70.6567383c0-7.1088867,1.0644531-13.9628906,3.0136719-20.4306641      C249.4453125,197.2563477,274.7246094,208.3295898,303.7617188,208.3295898L303.7617188,208.3295898z" fill-rule="evenodd"/>
					<linearGradient id="e" y2="205.77" gradientUnits="userSpaceOnUse" x2="303.98" y1="259.22" x1="303.98">
					<stop stop-color="#A9805F" offset="0"/>
					<stop stop-color="#DABB95" offset="1"/>
				</linearGradient>
				<path fill-rule="evenodd" clip-rule="evenodd" d="M263.050293,242.2675781      c-9.8198242-9.8164062-15.6762695-22.5410156-16.7695312-36.2348633      c4.0112305,2.4331055,8.3334961,4.6225586,12.8989258,6.5195312c13.4838867,5.597168,28.8955078,8.5537109,44.5820312,8.5537109      c15.8076172,0,31.3330078-3.0039062,44.9013672-8.6855469c4.6132812-1.9350586,8.9726562-4.1616211,13.0214844-6.6523438      c-1.0361328,13.7988281-6.9013672,26.6166992-16.7871094,36.4995117      c-10.9326172,10.9355469-25.4589844,16.9570312-40.9296875,16.9570312      C288.5185547,259.2246094,273.980957,253.203125,263.050293,242.2675781" fill="url(#e)"/>
						<linearGradient id="d" y2="82.318" gradientUnits="userSpaceOnUse" x2="298.42" y1="153.21" x1="310.92">
						<stop stop-color="#FFED98" offset="0"/>
						<stop stop-color="#FFED98" offset=".067485"/>
						<stop stop-color="#4B3502" offset=".19018"/>
						<stop stop-color="#93761D" offset=".25153"/>
						<stop stop-color="#FFED98" offset=".39264"/>
						<stop stop-color="#FFED98" offset=".73006"/>
						<stop stop-color="#93761D" offset=".83436"/>
						<stop stop-color="#FFED98" offset=".93252"/>
					</linearGradient>
					<path d="M295.2792969,152.1210938c-3.8984375,0-7.5703125-1.7709961-9.9907227-4.8071289       l-12.8989258-16.1801758c-1.8266602-2.2783203-2.7871094-5.0986328-2.7871094-7.965332       c0-0.9511719,0.1040039-1.8979492,0.3110352-2.8388672l4.6132812-20.1772461       c0.8666992-3.7900391,3.4091797-6.980957,6.9111328-8.6708984l18.6411133-8.9736328       c1.7519531-0.8417969,3.6445312-1.2612305,5.5380859-1.2612305c1.9013672,0,3.7939453,0.4194336,5.5439453,1.2612305       l18.6435547,8.9736328c3.5019531,1.6899414,6.0537109,4.8808594,6.9111328,8.6708984l4.6035156,20.1772461       c0.2158203,0.940918,0.3203125,1.8876953,0.3203125,2.8388672c0,2.8666992-0.9609375,5.6870117-2.7871094,7.965332       l-12.8984375,16.1801758c-2.4208984,3.0361328-6.1005859,4.8071289-9.9892578,4.8071289H295.2792969" fill="url(#d)"/>
						<linearGradient id="c" y2="100.68" gradientUnits="userSpaceOnUse" x2="321.96" y1="133.35" x1="289.29">
						<stop stop-color="#FFED98" offset="0"/>
						<stop stop-color="#FFED98" offset=".067485"/>
						<stop stop-color="#4B3502" offset=".19018"/>
						<stop stop-color="#93761D" offset=".25153"/>
						<stop stop-color="#FFED98" offset=".39264"/>
						<stop stop-color="#FFED98" offset=".73006"/>
						<stop stop-color="#93761D" offset=".83436"/>
						<stop stop-color="#FFED98" offset=".93252"/>
					</linearGradient>
					<polygon points="305.62 94.023 324.27 103 328.87 123.17 315.96 139.34 295.28 139.34 282.38 123.17 286.97 103" fill="url(#c)"/>
						<linearGradient id="b" y2="297.69" gradientUnits="userSpaceOnUse" x2="338.21" y1="368.58" x1="350.71">
						<stop stop-color="#FFED98" offset="0"/>
						<stop stop-color="#FFED98" offset=".067485"/>
						<stop stop-color="#4B3502" offset=".19018"/>
						<stop stop-color="#93761D" offset=".25153"/>
						<stop stop-color="#FFED98" offset=".39264"/>
						<stop stop-color="#FFED98" offset=".73006"/>
						<stop stop-color="#93761D" offset=".83436"/>
						<stop stop-color="#FFED98" offset=".93252"/>
					</linearGradient>
					<path d="M335.0751953,367.4960938c-3.8974609,0-7.5693359-1.7705078-9.9892578-4.8056641       l-12.8994141-16.1806641c-1.8261719-2.2783203-2.7871094-5.0986328-2.7871094-7.9658203       c0-0.9511719,0.1035156-1.8974609,0.3105469-2.8378906l4.6142578-20.1767578       c0.8652344-3.7900391,3.4082031-6.9824219,6.9111328-8.6728516l18.640625-8.9716797       c1.7519531-0.84375,3.6455078-1.2617188,5.5380859-1.2617188c1.9013672,0,3.7939453,0.4179688,5.5449219,1.2617188       l18.6425781,8.9716797c3.5029297,1.6904297,6.0537109,4.8828125,6.9111328,8.6728516l4.6035156,20.1767578       c0.2158203,0.9404297,0.3193359,1.8867188,0.3193359,2.8378906c0,2.8671875-0.9599609,5.6875-2.7871094,7.9658203       L365.75,362.6904297c-2.4189453,3.0351562-6.1005859,4.8056641-9.9892578,4.8056641H335.0751953" fill="url(#b)"/>
						<linearGradient id="a" y2="316.06" gradientUnits="userSpaceOnUse" x2="361.75" y1="348.73" x1="329.08">
						<stop stop-color="#FFED98" offset="0"/>
						<stop stop-color="#FFED98" offset=".067485"/>
						<stop stop-color="#4B3502" offset=".19018"/>
						<stop stop-color="#93761D" offset=".25153"/>
						<stop stop-color="#FFED98" offset=".39264"/>
						<stop stop-color="#FFED98" offset=".73006"/>
						<stop stop-color="#93761D" offset=".83436"/>
						<stop stop-color="#FFED98" offset=".93252"/>
					</linearGradient>
					<polygon points="345.41 309.4 364.06 318.37 368.67 338.54 355.76 354.72 335.08 354.72 322.18 338.54 326.77 318.37" fill="url(#a)"/>
	</g>
</switch>
</svg>
