<?xml version="1.0" encoding="UTF-8" standalone="no"?>
<!-- Generator: Adobe Illustrator 15.0.2, SVG Export Plug-In . SVG Version: 6.00 Build 0)  -->
<!DOCTYPE svg  PUBLIC '-//W3C//DTD SVG 1.1//EN'  'http://www.w3.org/Graphics/SVG/1.1/DTD/svg11.dtd' [
	<!ENTITY ns_flows "http://ns.adobe.com/Flows/1.0/">
	<!ENTITY ns_extend "http://ns.adobe.com/Extensibility/1.0/">
	<!ENTITY ns_ai "http://ns.adobe.com/AdobeIllustrator/10.0/">
	<!ENTITY ns_graphs "http://ns.adobe.com/Graphs/1.0/">
	<!ENTITY ns_vars "http://ns.adobe.com/Variables/1.0/">
	<!ENTITY ns_imrep "http://ns.adobe.com/ImageReplacement/1.0/">
	<!ENTITY ns_sfw "http://ns.adobe.com/SaveForWeb/1.0/">
	<!ENTITY ns_custom "http://ns.adobe.com/GenericCustomNamespace/1.0/">
	<!ENTITY ns_adobe_xpath "http://ns.adobe.com/XPath/1.0/">
	<!ENTITY st0 "fill-rule:evenodd;clip-rule:evenodd;">
	
		<!ENTITY st1 "fill-rule:evenodd;clip-rule:evenodd;fill:url(#SVGID_12_);stroke:#000000;stroke-width:8;stroke-linecap:round;stroke-linejoin:round;stroke-miterlimit:10;">
	<!ENTITY st2 "fill:url(#SVGID_10_);">
	<!ENTITY st3 "fill-rule:evenodd;clip-rule:evenodd;fill:url(#SVGID_11_);">
	<!ENTITY st4 "fill-rule:evenodd;clip-rule:evenodd;fill:url(#SVGID_13_);">
	<!ENTITY st5 "fill-rule:evenodd;clip-rule:evenodd;fill:url(#SVGID_1_);">
	<!ENTITY st6 "fill-rule:evenodd;clip-rule:evenodd;fill:url(#SVGID_2_);">
	<!ENTITY st7 "fill-rule:evenodd;clip-rule:evenodd;fill:url(#SVGID_4_);">
	<!ENTITY st8 "fill-rule:evenodd;clip-rule:evenodd;fill:url(#SVGID_5_);">
	<!ENTITY st9 "fill-rule:evenodd;clip-rule:evenodd;fill:url(#SVGID_6_);">
	<!ENTITY st10 "fill-rule:evenodd;clip-rule:evenodd;fill:url(#SVGID_7_);">
	<!ENTITY st11 "fill-rule:evenodd;clip-rule:evenodd;fill:url(#SVGID_8_);">
	<!ENTITY st12 "fill-rule:evenodd;clip-rule:evenodd;fill:url(#SVGID_9_);">
	<!ENTITY st13 "fill-rule:evenodd;clip-rule:evenodd;fill:none;stroke:#000000;stroke-width:16;stroke-miterlimit:10;">
	
		<!ENTITY st14 "fill-rule:evenodd;clip-rule:evenodd;fill:url(#SVGID_3_);stroke:#000000;stroke-width:15.1616993;stroke-miterlimit:10;">
]>
<svg style="enable-background:new 0 0 600 600" xmlns="http://www.w3.org/2000/svg" xml:space="preserve" version="1.1" y="0px" x="0px" xmlns:xlink="http://www.w3.org/1999/xlink" viewBox="0 0 600 600">
<switch>
	<foreignObject y="0" x="0" height="1" width="1" requiredExtensions="http://ns.adobe.com/AdobeIllustrator/10.0/">
	</foreignObject>
	<g>
						<linearGradient id="i" y2="22.036" gradientUnits="userSpaceOnUse" x2="300" y1="571.79" x1="300">
						<stop stop-color="#EC2100" offset=".25"/>
						<stop stop-color="#FD5135" offset="1"/>
					</linearGradient>
					<path fill-rule="evenodd" clip-rule="evenodd" d="M305.6318359,571.7890625       c-22.0126953-18.609375-71.5556641-61.4794922-125.0488281-114.3408203       c-5.574707-5.5097656-11.2675781-10.9960938-16.7729492-16.3027344       c-49.3266602-47.5429688-95.9174805-92.4492188-95.9174805-187.0029297       c0-61.9990234,24.1430664-120.2866211,67.9819336-164.1254883S238.0009766,22.0351562,300,22.0351562       s120.2861328,24.1430664,164.125,67.9819336s67.9824219,102.1264648,67.9824219,164.1254883       c0,94.7988281-44.1396484,137.2099609-95.2480469,186.3183594       c-5.7333984,5.5087891-11.6621094,11.2050781-17.5126953,16.9726562       C365.3662109,510.6494141,324.2900391,552.5898438,305.6318359,571.7890625z" fill="url(#i)"/>
					<path d="M300,39.0351562c29.0546875,0,57.2226562,5.6826172,83.7197266,16.8901367       c25.6113281,10.8320312,48.6191406,26.3466797,68.3847656,46.112793       c19.765625,19.765625,35.2802734,42.7734375,46.1132812,68.3847656       c11.2070312,26.4975586,16.8896484,54.6650391,16.8896484,83.7197266       c0,40.0048828-8.2548828,72.2041016-25.9775391,101.3330078       c-16.3837891,26.9277344-39.5371094,49.1738281-64.0498047,72.7275391       c-5.7714844,5.5458984-11.7402344,11.2802734-17.6679688,17.1240234       c-45.1015625,44.4619141-81.2363281,81.09375-102.8525391,103.2070312       c-25.0771484-21.5673828-67.1010742-58.7832031-112.0268555-103.1777344       c-5.6503906-5.5839844-11.3823242-11.1083984-16.9248047-16.4511719       c-24.4228516-23.5390625-47.4907227-45.7734375-64.159668-73.0341797       c-18.1176758-29.6308594-26.5556641-61.9555664-26.5556641-101.7285156       c0-29.0546875,5.6826172-57.222168,16.8901367-83.7197266c10.8320312-25.6113281,26.3466797-48.6191406,46.112793-68.3847656       c19.765625-19.7661133,42.7734375-35.2807617,68.3842773-46.112793       C242.777832,44.7177734,270.9453125,39.0351562,300,39.0351562 M300,5.0351562       c-137.5800781,0-249.1074219,111.5273438-249.1074219,249.1074219       c0,112.9394531,62.0859375,160.3964844,117.7412109,215.3974609       c73.2197266,72.3544922,138.2255859,125.4248047,138.2255859,125.4248047s49.3515625-51.4189453,124.421875-125.4248047       c57.2207031-56.4091797,117.8261719-101.9072266,117.8261719-215.3974609       C549.1074219,116.5625,437.5800781,5.0351562,300,5.0351562L300,5.0351562z"/>
				<linearGradient id="h" y2="150.75" gradientUnits="userSpaceOnUse" x2="302.69" y1="308" x1="302.69">
					<stop stop-color="#353C43" offset="0"/>
					<stop stop-color="#C8C8C8" offset=".5"/>
					<stop stop-color="#353C43" offset="1"/>
				</linearGradient>
				<path fill-rule="evenodd" clip-rule="evenodd" d="M470.7490234,233h-14.5c-3,0-8.5-4.25-15.25-13.25s-38-50-43.5-56.75      s-14.25-12.25-30.75-12.25c-9.5,0-194.5,0-194.5,0c-8.75,0-18.5,3.25-24.5,15.25s-28.25,62-32.5,72s-3,36.5-2.75,47.75      s2.25,22.25,10.25,22.25h17.3886719c2.1386719-22.4453125,21.0380859-40.0019531,44.0429688-40.0019531      S226.0849609,285.5546875,228.2236328,308h163.2324219c2.1386719-22.4453125,21.0380859-40.0019531,44.0429688-40.0019531      c23.0039062,0,41.9033203,17.5556641,44.0429688,40c10.9628906-0.0175781,13.7070312-6.7607422,13.7070312-16.2480469v-31.5      C493.2490234,253.25,477.7490234,233,470.7490234,233z" fill="url(#h)"/>
				<linearGradient id="g" y2="153.75" gradientUnits="userSpaceOnUse" x2="381.91" y1="224.5" x1="381.91">
					<stop stop-color="#1342BE" offset="0"/>
					<stop stop-color="#B9D6FE" offset="1"/>
				</linearGradient>
				<path d="M437.4160156,216.7988281      c1.2675781,4.2539062-1.0449219,7.7011719-5.1669922,7.7011719h-79.5878906      c-4.1220703,0-8.4921875-3.4472656-9.7597656-7.7011719l-16.5048828-55.3476562      c-1.2685547-4.2539062,1.0458984-7.7011719,5.1679688-7.7011719h53.9257812      c4.1220703,0,8.4912109,3.4472656,9.7587891,7.7011719L437.4160156,216.7988281z" fill-rule="evenodd" stroke="#000" clip-rule="evenodd" stroke-miterlimit="10" stroke-width="15.162" fill="url(#g)"/>
				<polygon points="185.28 88.688 298.87 88.688 277.48 130.51 185.28 130.51" clip-rule="evenodd" fill-rule="evenodd"/>
					<linearGradient id="f" y2="100.96" gradientUnits="userSpaceOnUse" x2="238.18" y1="118.25" x1="238.18">
					<stop stop-color="#1342BE" offset="0"/>
					<stop stop-color="#7AAAE4" offset="1"/>
				</linearGradient>
				<path fill-rule="evenodd" clip-rule="evenodd" d="M197.5361328,118.2485352c0-7.1689453,0-10.1245117,0-17.2929688      c15.6582031,0,57.6542969,0,81.2841797,0c-4.3291016,8.4521484-6.4726562,12.6459961-8.8408203,17.2929688      C259.140625,118.2485352,214.2412109,118.2485352,197.5361328,118.2485352" fill="url(#f)"/>
				<polygon points="203.24 125.32 244.22 125.32 244.22 166.29 203.24 166.29" clip-rule="evenodd" fill-rule="evenodd"/>
					<linearGradient id="e" y2="137.57" gradientUnits="userSpaceOnUse" x2="223.73" y1="146.77" x1="223.73">
					<stop stop-color="#1342BE" offset="0"/>
					<stop stop-color="#7AAAE4" offset="1"/>
				</linearGradient>
				<path fill-rule="evenodd" clip-rule="evenodd" d="M215.5068359,146.7675781c0-3.8583984,0-5.3339844,0-9.1933594      c6.8974609,0,9.5449219,0,16.4511719,0c0,3.859375,0,5.3349609,0,9.1933594      C225.0517578,146.7675781,222.4042969,146.7675781,215.5068359,146.7675781" fill="url(#e)"/>
				<g clip-rule="evenodd" fill-rule="evenodd">
					<path d="M184.1806641,278.0058594c18.9101562,0,34.2412109,15.3300781,34.2412109,34.2421875       c0,18.9082031-15.3310547,34.2421875-34.2412109,34.2421875s-34.2421875-15.3339844-34.2421875-34.2421875       C149.9384766,293.3359375,165.2705078,278.0058594,184.1806641,278.0058594L184.1806641,278.0058594z"/>
						<linearGradient id="d" y2="290.27" gradientUnits="userSpaceOnUse" x2="184.18" y1="334.23" x1="184.18">
						<stop stop-color="#353C43" offset="0"/>
						<stop stop-color="#1A1A1A" offset=".50307"/>
						<stop stop-color="#333" offset=".50920"/>
						<stop stop-color="#1E2226" offset="1"/>
					</linearGradient>
					<path d="M162.2001953,312.2519531c0-12.1132812,9.8710938-21.984375,21.9853516-21.984375       c12.1123047,0,21.9746094,9.8710938,21.9746094,21.984375s-9.8623047,21.9746094-21.9746094,21.9746094       C172.0712891,334.2265625,162.2001953,324.3652344,162.2001953,312.2519531" fill="url(#d)"/>
						<linearGradient id="c" y2="301.36" gradientUnits="userSpaceOnUse" x2="184.18" y1="323.13" x1="184.18">
						<stop stop-color="#7F7E80" offset="0"/>
						<stop stop-color="#7F7E80" offset=".50920"/>
						<stop stop-color="#C8C8C8" offset=".50920"/>
						<stop stop-color="#7F7E80" offset="1"/>
					</linearGradient>
					<path d="M173.296875,312.2480469c0-6.0039062,4.8818359-10.8847656,10.8837891-10.8847656       c5.9931641,0,10.8837891,4.8808594,10.8837891,10.8847656c0,6.0019531-4.890625,10.8828125-10.8837891,10.8828125       C178.1787109,323.1308594,173.296875,318.25,173.296875,312.2480469" fill="url(#c)"/>
				</g>
				<g clip-rule="evenodd" fill-rule="evenodd">
					<path d="M435.7783203,278.2529297c18.9101562,0,34.2412109,15.3310547,34.2412109,34.2421875       c0,18.9091797-15.3310547,34.2421875-34.2412109,34.2421875s-34.2421875-15.3330078-34.2421875-34.2421875       C401.5361328,293.5839844,416.8681641,278.2529297,435.7783203,278.2529297L435.7783203,278.2529297z"/>
						<linearGradient id="b" y2="290.52" gradientUnits="userSpaceOnUse" x2="435.78" y1="334.47" x1="435.78">
						<stop stop-color="#353C43" offset="0"/>
						<stop stop-color="#1A1A1A" offset=".50307"/>
						<stop stop-color="#333" offset=".50920"/>
						<stop stop-color="#1E2226" offset="1"/>
					</linearGradient>
					<path d="M413.7978516,312.5c0-12.1142578,9.8710938-21.984375,21.9853516-21.984375       c12.1123047,0,21.9746094,9.8701172,21.9746094,21.984375c0,12.1132812-9.8623047,21.9746094-21.9746094,21.9746094       C423.6689453,334.4746094,413.7978516,324.6132812,413.7978516,312.5" fill="url(#b)"/>
						<linearGradient id="a" y2="301.61" gradientUnits="userSpaceOnUse" x2="435.78" y1="323.38" x1="435.78">
						<stop stop-color="#7F7E80" offset="0"/>
						<stop stop-color="#7F7E80" offset=".50920"/>
						<stop stop-color="#C8C8C8" offset=".50920"/>
						<stop stop-color="#7F7E80" offset="1"/>
					</linearGradient>
					<path d="M424.8945312,312.4960938c0-6.0039062,4.8818359-10.8847656,10.8837891-10.8847656       c5.9931641,0,10.8837891,4.8808594,10.8837891,10.8847656c0,6.0009766-4.890625,10.8828125-10.8837891,10.8828125       C429.7763672,323.3789062,424.8945312,318.4970703,424.8945312,312.4960938" fill="url(#a)"/>
				</g>
				<path d="M238.2285156,233.8369141l-55.8378906-80.5791016h31.9003906l55.8476562,80.5791016H238.2285156      L238.2285156,233.8369141z M193.5732422,233.8369141l-45.5341797-65.7001953L150.1660156,159l6.0009766-5.7421875h13.46875      l55.8388672,80.5791016H193.5732422L193.5732422,233.8369141z M282.8925781,233.8369141l-55.8378906-80.5791016h31.8916016      l55.8476562,80.5791016H282.8925781L282.8925781,233.8369141z"/>
					<linearGradient id="m" y2="153.26" gradientUnits="userSpaceOnUse" x2="235.59" y1="233.84" x1="235.59">
					<stop stop-color="#E63E00" offset=".25"/>
					<stop stop-color="#FFC654" offset="1"/>
				</linearGradient>
				<path d="M247.5615234,233.8369141l-55.8378906-80.5791016h31.9003906l55.8476562,80.5791016      H247.5615234L247.5615234,233.8369141z M202.90625,233.8369141l-55.8466797-80.5791016H178.96875l55.8388672,80.5791016      H202.90625L202.90625,233.8369141z M292.2255859,233.8369141l-55.8378906-80.5791016h31.8916016l55.8476562,80.5791016      H292.2255859L292.2255859,233.8369141z" fill="url(#m)"/>
				<path d="M470.7490234,233h-7.4169922c-10.3330078,0-15.5830078-4.25-22.3330078-13.25      s-38-50-43.5-56.75s-14.25-12.25-30.75-12.25c-9.5,0-194.5,0-194.5,0c-8.75,0-18.5,3.25-24.5,15.25s-28.25,62-32.5,72      s-3,36.5-2.75,47.75s2.25,22.25,10.25,22.25h17.3886719c2.1386719-22.4453125,21.0380859-40.0019531,44.0429688-40.0019531      S226.0849609,285.5546875,228.2236328,308h163.2324219c2.1386719-22.4453125,21.0380859-40.0019531,44.0429688-40.0019531      c23.0039062,0,41.9033203,17.5556641,44.0429688,40c10.9628906-0.0175781,13.7070312-6.7607422,13.7070312-16.2480469v-31.5      C493.2490234,253.25,482.4990234,233,470.7490234,233z" stroke="#000" clip-rule="evenodd" stroke-miterlimit="10" stroke-width="16" fill="none"/>
						<linearGradient id="l" y2="218.65" gradientUnits="userSpaceOnUse" x2="130.22" y1="252.28" x1="130.22">
						<stop stop-color="#EC2100" offset="0"/>
						<stop stop-color="#FD5135" offset="1"/>
					</linearGradient>
					<path fill-rule="evenodd" clip-rule="evenodd" d="M126.7265625,252.1782227       c-1.9433594-0.0273438-3.7612305-0.8129883-5.1220703-2.2119141c-1.3105469-1.3520508-2.0361328-3.1499023-2.0361328-5.0551758       l0.2885742-18.9614258c0.0639648-3.9135742,3.1806641-7.0498047,7.0957031-7.1352539l6.4907227-0.1547852l0.1303711-0.0073242       c1.9433594,0.0019531,3.7480469,0.7426758,5.1206055,2.0874023c1.3823242,1.3564453,2.1767578,3.2446289,2.1767578,5.1782227       l-0.0722656,19.1196289c-0.0043945,1.9296875-0.7954102,3.8051758-2.1699219,5.1533203       c-1.3725586,1.3452148-3.1831055,2.0864258-5.0966797,2.0864258L126.7265625,252.1782227z" fill="url(#l)"/>
					<path d="M133.6577148,223.652832c0.5722656,0.0136719,1.1166992,0.2460938,1.5317383,0.6523438       c0.4331055,0.425293,0.6816406,1.0131836,0.6816406,1.612793v0.0166016l-0.0722656,19.0981445       c-0.0014648,0.5927734-0.2460938,1.171875-0.668457,1.5859375c-0.4331055,0.4248047-1.0009766,0.6586914-1.5981445,0.6586914       h-0.105957l-6.6328125-0.0986328c-0.6049805-0.0083008-1.175293-0.2568359-1.5922852-0.6850586       c-0.4082031-0.4213867-0.6328125-0.9833984-0.6328125-1.5825195v-0.1225586l0.2875977-18.7524414       c0.0195312-1.199707,1.0092773-2.1967773,2.2260742-2.2236328l6.4804688-0.1542969L133.6577148,223.652832        M133.6054688,213.6523438c-0.0898438,0-0.1816406,0-0.28125,0.0087891l-6.4804688,0.1542969       c-6.5800781,0.1435547-11.8789062,5.4765625-11.9863281,12.0576172l-0.2890625,18.8388672c0,0.0732422,0,0.1357422,0,0.1992188       c0,3.1914062,1.2373047,6.2568359,3.4521484,8.5419922c2.2783203,2.3417969,5.3789062,3.6787109,8.6318359,3.7246094       l6.7001953,0.0996094c0.0634766,0,0.1259766,0,0.1796875,0c3.2177734,0,6.3007812-1.265625,8.5976562-3.5166016       c2.3408203-2.2958984,3.6611328-5.4326172,3.6689453-8.7041016l0.0722656-19.0839844c0-0.0175781,0-0.0351562,0-0.0546875       c0-3.2890625-1.328125-6.4443359-3.6777344-8.75C139.8964844,214.9179688,136.8144531,213.6523438,133.6054688,213.6523438       L133.6054688,213.6523438z"/>
					<linearGradient id="k" y2="244.17" gradientUnits="userSpaceOnUse" x2="477.25" y1="272.17" x1="477.25">
					<stop stop-color="#E63E00" offset="0"/>
					<stop stop-color="#FFC654" offset="1"/>
				</linearGradient>
				<path stroke-linejoin="round" d="M490.4931641,265.578125c0,3.6386719-2.9501953,6.5878906-6.5888672,6.5878906      h-13.3134766c-3.6386719,0-6.5888672-2.9492188-6.5888672-6.5878906v-14.8232422      c0-3.6386719,2.9501953-6.5888672,6.5888672-6.5888672h13.3134766c3.6386719,0,6.5888672,2.9501953,6.5888672,6.5888672      V265.578125z" fill-rule="evenodd" stroke="#000" stroke-linecap="round" clip-rule="evenodd" stroke-miterlimit="10" stroke-width="8" fill="url(#k)"/>
					<linearGradient id="j" y2="248.17" gradientUnits="userSpaceOnUse" x2="485.25" y1="268.19" x1="485.25">
					<stop stop-color="#1342BE" offset="0"/>
					<stop stop-color="#7AAAE4" offset="1"/>
				</linearGradient>
				<path fill-rule="evenodd" clip-rule="evenodd" d="M491.4990234,268.1875h-12.5v-20.0214844c0,0,2.9589844,0,6.3330078,0      C490.8320312,248.1660156,491.4990234,268.1875,491.4990234,268.1875z" fill="url(#j)"/>
	</g>
</switch>
</svg>
