<?xml version="1.0" encoding="UTF-8" standalone="no"?>
<!-- Generator: Adobe Illustrator 15.0.2, SVG Export Plug-In . SVG Version: 6.00 Build 0)  -->
<!DOCTYPE svg  PUBLIC '-//W3C//DTD SVG 1.1//EN'  'http://www.w3.org/Graphics/SVG/1.1/DTD/svg11.dtd' [
	<!ENTITY ns_flows "http://ns.adobe.com/Flows/1.0/">
	<!ENTITY ns_extend "http://ns.adobe.com/Extensibility/1.0/">
	<!ENTITY ns_ai "http://ns.adobe.com/AdobeIllustrator/10.0/">
	<!ENTITY ns_graphs "http://ns.adobe.com/Graphs/1.0/">
	<!ENTITY ns_vars "http://ns.adobe.com/Variables/1.0/">
	<!ENTITY ns_imrep "http://ns.adobe.com/ImageReplacement/1.0/">
	<!ENTITY ns_sfw "http://ns.adobe.com/SaveForWeb/1.0/">
	<!ENTITY ns_custom "http://ns.adobe.com/GenericCustomNamespace/1.0/">
	<!ENTITY ns_adobe_xpath "http://ns.adobe.com/XPath/1.0/">
	<!ENTITY st0 "fill:none;stroke:#000000;stroke-width:4.1639199;stroke-linecap:round;stroke-miterlimit:10;">
	<!ENTITY st1 "fill-rule:evenodd;clip-rule:evenodd;">
	
		<!ENTITY st2 "fill-rule:evenodd;clip-rule:evenodd;fill:url(#SVGID_12_);stroke:#000000;stroke-width:8;stroke-linecap:round;stroke-linejoin:round;stroke-miterlimit:10;">
	<!ENTITY st3 "stroke:#000000;stroke-miterlimit:10;">
	<!ENTITY st4 "fill:url(#SVGID_10_);">
	<!ENTITY st5 "fill:url(#SVGID_14_);">
	<!ENTITY st6 "fill-rule:evenodd;clip-rule:evenodd;fill:url(#SVGID_11_);">
	<!ENTITY st7 "fill-rule:evenodd;clip-rule:evenodd;fill:url(#SVGID_13_);">
	<!ENTITY st8 "fill-rule:evenodd;clip-rule:evenodd;fill:url(#SVGID_1_);">
	<!ENTITY st9 "fill-rule:evenodd;clip-rule:evenodd;fill:url(#SVGID_2_);">
	<!ENTITY st10 "fill-rule:evenodd;clip-rule:evenodd;fill:url(#SVGID_4_);">
	<!ENTITY st11 "fill-rule:evenodd;clip-rule:evenodd;fill:url(#SVGID_5_);">
	<!ENTITY st12 "fill-rule:evenodd;clip-rule:evenodd;fill:url(#SVGID_6_);">
	<!ENTITY st13 "fill-rule:evenodd;clip-rule:evenodd;fill:url(#SVGID_7_);">
	<!ENTITY st14 "fill-rule:evenodd;clip-rule:evenodd;fill:url(#SVGID_8_);">
	<!ENTITY st15 "fill-rule:evenodd;clip-rule:evenodd;fill:url(#SVGID_9_);">
	<!ENTITY st16 "fill-rule:evenodd;clip-rule:evenodd;fill:none;stroke:#000000;stroke-width:16;stroke-miterlimit:10;">
	
		<!ENTITY st17 "fill-rule:evenodd;clip-rule:evenodd;fill:url(#SVGID_3_);stroke:#000000;stroke-width:15.1616993;stroke-miterlimit:10;">
]>
<svg style="enable-background:new 0 0 600 600" xmlns="http://www.w3.org/2000/svg" xml:space="preserve" version="1.1" y="0px" x="0px" xmlns:xlink="http://www.w3.org/1999/xlink" viewBox="0 0 600 600">
<switch>
	<foreignObject y="0" x="0" height="1" width="1" requiredExtensions="http://ns.adobe.com/AdobeIllustrator/10.0/">
	</foreignObject>
	<g>
					<linearGradient id="i" y2="22.036" gradientUnits="userSpaceOnUse" x2="300" y1="571.79" x1="300">
					<stop stop-color="#03B304" offset=".25"/>
					<stop stop-color="#B2FEAF" offset="1"/>
				</linearGradient>
				<path fill-rule="evenodd" clip-rule="evenodd" d="M305.6318359,571.7890625      c-22.0126953-18.609375-71.5556641-61.4794922-125.0488281-114.3408203      c-5.574707-5.5087891-11.2666016-10.9951172-16.7714844-16.3007812      c-49.3271484-47.5439453-95.9189453-92.4501953-95.9189453-187.0048828      c0-61.9990234,24.1430664-120.2866211,67.9819336-164.1254883S238.0009766,22.0351562,300,22.0351562      s120.2861328,24.1430664,164.125,67.9819336s67.9824219,102.1264648,67.9824219,164.1254883      c0,94.7988281-44.1396484,137.2099609-95.2480469,186.3183594      c-5.7333984,5.5087891-11.6621094,11.2050781-17.5126953,16.9726562      C365.3662109,510.6494141,324.2900391,552.5898438,305.6318359,571.7890625z" fill="url(#i)"/>
				<path d="M300,39.0351562c29.0546875,0,57.2226562,5.6826172,83.7197266,16.8901367      c25.6113281,10.8320312,48.6191406,26.3466797,68.3847656,46.112793      c19.765625,19.765625,35.2802734,42.7734375,46.1132812,68.3847656      c11.2070312,26.4975586,16.8896484,54.6650391,16.8896484,83.7197266c0,40.0048828-8.2548828,72.2041016-25.9775391,101.3330078      c-16.3837891,26.9277344-39.5371094,49.1738281-64.0498047,72.7275391      c-5.7714844,5.5458984-11.7402344,11.2802734-17.6679688,17.1240234      c-45.1015625,44.4619141-81.2363281,81.09375-102.8525391,103.2070312      c-25.0771484-21.5673828-67.1015625-58.7832031-112.0268555-103.1777344      c-5.6503906-5.5839844-11.3813477-11.1074219-16.9233398-16.4492188      c-24.4233398-23.5400391-47.4916992-45.7744141-64.1611328-73.0351562      c-18.1171875-29.6308594-26.5556641-61.9560547-26.5556641-101.7294922c0-29.0546875,5.6826172-57.222168,16.8901367-83.7197266      c10.8320312-25.6113281,26.3466797-48.6191406,46.112793-68.3847656      c19.765625-19.7661133,42.7734375-35.2807617,68.3842773-46.112793      C242.777832,44.7177734,270.9453125,39.0351562,300,39.0351562 M300,5.0351562      c-137.5800781,0-249.1074219,111.5273438-249.1074219,249.1074219      c0,112.9394531,62.0849609,160.3964844,117.7412109,215.3974609      c73.2197266,72.3544922,138.2255859,125.4248047,138.2255859,125.4248047s49.3515625-51.4189453,124.421875-125.4248047      c57.2207031-56.4091797,117.8261719-101.9072266,117.8261719-215.3974609      C549.1074219,116.5625,437.5800781,5.0351562,300,5.0351562L300,5.0351562z"/>
			<linearGradient id="h" y2="150.75" gradientUnits="userSpaceOnUse" x2="302.69" y1="308" x1="302.69">
				<stop stop-color="#353C43" offset="0"/>
				<stop stop-color="#C8C8C8" offset=".5"/>
				<stop stop-color="#353C43" offset="1"/>
			</linearGradient>
			<path fill-rule="evenodd" clip-rule="evenodd" d="M470.7490234,233h-14.5c-3,0-8.5-4.25-15.25-13.25s-38-50-43.5-56.75     s-14.25-12.25-30.75-12.25c-9.5,0-194.5,0-194.5,0c-8.75,0-18.5,3.25-24.5,15.25s-28.25,62-32.5,72s-3,36.5-2.75,47.75     s2.25,22.25,10.25,22.25h17.3886719c2.1386719-22.4453125,21.0380859-40.0024414,44.0429688-40.0024414     S226.0849609,285.5546875,228.2236328,308h163.2324219c2.1386719-22.4453125,21.0380859-40.0024414,44.0429688-40.0024414     c23.0039062,0,41.9033203,17.5561523,44.0429688,40.0004883c10.9628906-0.0175781,13.7070312-6.7607422,13.7070312-16.2480469     v-31.5C493.2490234,253.25,477.7490234,233,470.7490234,233z" fill="url(#h)"/>
			<linearGradient id="g" y2="153.75" gradientUnits="userSpaceOnUse" x2="381.91" y1="224.5" x1="381.91">
				<stop stop-color="#1342BE" offset="0"/>
				<stop stop-color="#B9D6FE" offset="1"/>
			</linearGradient>
			<path d="M437.4160156,216.7993164c1.2675781,4.2529297-1.0449219,7.7006836-5.1669922,7.7006836     h-79.5878906c-4.1220703,0-8.4921875-3.4477539-9.7597656-7.7006836l-16.5048828-55.3486328     c-1.2685547-4.2529297,1.0458984-7.7006836,5.1679688-7.7006836h53.9257812c4.1220703,0,8.4912109,3.4477539,9.7587891,7.7006836     L437.4160156,216.7993164z" fill-rule="evenodd" stroke="#000" clip-rule="evenodd" stroke-miterlimit="10" stroke-width="15.162" fill="url(#g)"/>
			<polygon points="185.28 88.688 298.87 88.688 277.48 130.51 185.28 130.51" clip-rule="evenodd" fill-rule="evenodd"/>
				<linearGradient id="f" y2="100.96" gradientUnits="userSpaceOnUse" x2="238.18" y1="118.25" x1="238.18">
				<stop stop-color="#1342BE" offset="0"/>
				<stop stop-color="#7AAAE4" offset="1"/>
			</linearGradient>
			<path fill-rule="evenodd" clip-rule="evenodd" d="M197.5361328,118.2485352c0-7.1689453,0-10.1245117,0-17.2929688     c15.6582031,0,57.6542969,0,81.2841797,0c-4.3291016,8.4521484-6.4726562,12.6459961-8.8408203,17.2929688     C259.140625,118.2485352,214.2412109,118.2485352,197.5361328,118.2485352" fill="url(#f)"/>
			<polygon points="203.24 125.32 244.22 125.32 244.22 166.28 203.24 166.28" clip-rule="evenodd" fill-rule="evenodd"/>
				<linearGradient id="e" y2="137.57" gradientUnits="userSpaceOnUse" x2="223.73" y1="146.77" x1="223.73">
				<stop stop-color="#1342BE" offset="0"/>
				<stop stop-color="#7AAAE4" offset="1"/>
			</linearGradient>
			<path fill-rule="evenodd" clip-rule="evenodd" d="M215.5068359,146.7680664c0-3.8588867,0-5.3339844,0-9.1933594     c6.8974609,0,9.5449219,0,16.4511719,0c0,3.859375,0,5.3344727,0,9.1933594     C225.0517578,146.7680664,222.4042969,146.7680664,215.5068359,146.7680664" fill="url(#e)"/>
			<g clip-rule="evenodd" fill-rule="evenodd">
				<path d="M184.1806641,278.0053711c18.9101562,0,34.2412109,15.3310547,34.2412109,34.2426758      c0,18.9082031-15.3310547,34.2421875-34.2412109,34.2421875s-34.2421875-15.3339844-34.2421875-34.2421875      C149.9384766,293.3364258,165.2705078,278.0053711,184.1806641,278.0053711L184.1806641,278.0053711z"/>
					<linearGradient id="d" y2="290.27" gradientUnits="userSpaceOnUse" x2="184.18" y1="334.23" x1="184.18">
					<stop stop-color="#353C43" offset="0"/>
					<stop stop-color="#1A1A1A" offset=".50307"/>
					<stop stop-color="#333" offset=".50920"/>
					<stop stop-color="#1E2226" offset="1"/>
				</linearGradient>
				<path d="M162.2001953,312.2519531c0-12.1132812,9.8710938-21.9838867,21.9853516-21.9838867      c12.1123047,0,21.9746094,9.8706055,21.9746094,21.9838867s-9.8623047,21.9746094-21.9746094,21.9746094      C172.0712891,334.2265625,162.2001953,324.3652344,162.2001953,312.2519531" fill="url(#d)"/>
					<linearGradient id="c" y2="301.36" gradientUnits="userSpaceOnUse" x2="184.18" y1="323.13" x1="184.18">
					<stop stop-color="#7F7E80" offset="0"/>
					<stop stop-color="#7F7E80" offset=".50920"/>
					<stop stop-color="#C8C8C8" offset=".50920"/>
					<stop stop-color="#7F7E80" offset="1"/>
				</linearGradient>
				<path d="M173.296875,312.2480469c0-6.0039062,4.8818359-10.8847656,10.8837891-10.8847656      c5.9931641,0,10.8837891,4.8808594,10.8837891,10.8847656c0,6.0019531-4.890625,10.8828125-10.8837891,10.8828125      C178.1787109,323.1308594,173.296875,318.25,173.296875,312.2480469" fill="url(#c)"/>
			</g>
			<g clip-rule="evenodd" fill-rule="evenodd">
				<path d="M435.7783203,278.2529297c18.9101562,0,34.2412109,15.3310547,34.2412109,34.2421875      c0,18.9091797-15.3310547,34.2421875-34.2412109,34.2421875s-34.2421875-15.3330078-34.2421875-34.2421875      C401.5361328,293.5839844,416.8681641,278.2529297,435.7783203,278.2529297L435.7783203,278.2529297z"/>
					<linearGradient id="b" y2="290.52" gradientUnits="userSpaceOnUse" x2="435.78" y1="334.47" x1="435.78">
					<stop stop-color="#353C43" offset="0"/>
					<stop stop-color="#1A1A1A" offset=".50307"/>
					<stop stop-color="#333" offset=".50920"/>
					<stop stop-color="#1E2226" offset="1"/>
				</linearGradient>
				<path d="M413.7978516,312.5c0-12.1142578,9.8710938-21.984375,21.9853516-21.984375      c12.1123047,0,21.9746094,9.8701172,21.9746094,21.984375c0,12.1132812-9.8623047,21.9746094-21.9746094,21.9746094      C423.6689453,334.4746094,413.7978516,324.6132812,413.7978516,312.5" fill="url(#b)"/>
					<linearGradient id="a" y2="301.61" gradientUnits="userSpaceOnUse" x2="435.78" y1="323.38" x1="435.78">
					<stop stop-color="#7F7E80" offset="0"/>
					<stop stop-color="#7F7E80" offset=".50920"/>
					<stop stop-color="#C8C8C8" offset=".50920"/>
					<stop stop-color="#7F7E80" offset="1"/>
				</linearGradient>
				<path d="M424.8945312,312.4960938c0-6.0039062,4.8818359-10.8847656,10.8837891-10.8847656      c5.9931641,0,10.8837891,4.8808594,10.8837891,10.8847656c0,6.0009766-4.890625,10.8828125-10.8837891,10.8828125      C429.7763672,323.3789062,424.8945312,318.4970703,424.8945312,312.4960938" fill="url(#a)"/>
			</g>
			<path d="M238.2285156,233.8369141l-55.8378906-80.5786133h31.9003906l55.8476562,80.5786133H238.2285156     L238.2285156,233.8369141z M193.5732422,233.8369141l-45.5341797-65.699707L150.1660156,159l6.0009766-5.7416992h13.46875     l55.8388672,80.5786133H193.5732422L193.5732422,233.8369141z M282.8925781,233.8369141l-55.8378906-80.5786133h31.8916016     l55.8476562,80.5786133H282.8925781L282.8925781,233.8369141z"/>
				<linearGradient id="n" y2="153.26" gradientUnits="userSpaceOnUse" x2="235.59" y1="233.84" x1="235.59">
				<stop stop-color="#E63E00" offset=".25"/>
				<stop stop-color="#FFC654" offset="1"/>
			</linearGradient>
			<path d="M247.5615234,233.8369141l-55.8378906-80.5786133h31.9003906l55.8476562,80.5786133     H247.5615234L247.5615234,233.8369141z M202.90625,233.8369141l-55.8466797-80.5786133H178.96875l55.8388672,80.5786133     H202.90625L202.90625,233.8369141z M292.2255859,233.8369141l-55.8378906-80.5786133h31.8916016l55.8476562,80.5786133     H292.2255859L292.2255859,233.8369141z" fill="url(#n)"/>
			<path d="M470.7490234,233h-7.4169922c-10.3330078,0-15.5830078-4.25-22.3330078-13.25     s-38-50-43.5-56.75s-14.25-12.25-30.75-12.25c-9.5,0-194.5,0-194.5,0c-8.75,0-18.5,3.25-24.5,15.25s-28.25,62-32.5,72     s-3,36.5-2.75,47.75s2.25,22.25,10.25,22.25h17.3886719c2.1386719-22.4453125,21.0380859-40.0024414,44.0429688-40.0024414     S226.0849609,285.5546875,228.2236328,308h163.2324219c2.1386719-22.4453125,21.0380859-40.0024414,44.0429688-40.0024414     c23.0039062,0,41.9033203,17.5561523,44.0429688,40.0004883c10.9628906-0.0175781,13.7070312-6.7607422,13.7070312-16.2480469     v-31.5C493.2490234,253.25,482.4990234,233,470.7490234,233z" stroke="#000" clip-rule="evenodd" stroke-miterlimit="10" stroke-width="16" fill="none"/>
					<linearGradient id="m" y2="218.65" gradientUnits="userSpaceOnUse" x2="130.22" y1="252.28" x1="130.22">
					<stop stop-color="#EC2100" offset="0"/>
					<stop stop-color="#FD5135" offset="1"/>
				</linearGradient>
				<path fill-rule="evenodd" clip-rule="evenodd" d="M126.7260742,252.1787109c-1.9423828-0.027832-3.7607422-0.8134766-5.1220703-2.2124023      c-1.3100586-1.3520508-2.0356445-3.1499023-2.0356445-5.0551758l0.2885742-18.9609375      c0.0639648-3.9135742,3.1806641-7.050293,7.0961914-7.1357422l6.4902344-0.1547852l0.1274414-0.0068359      c1.9462891,0.0014648,3.7514648,0.7426758,5.1235352,2.0869141c1.3823242,1.3564453,2.1767578,3.2451172,2.1767578,5.1787109      l-0.0722656,19.1186523c-0.0043945,1.9301758-0.7954102,3.8061523-2.1694336,5.1538086      c-1.3725586,1.3447266-3.1831055,2.0859375-5.097168,2.0859375L126.7260742,252.1787109z" fill="url(#m)"/>
				<path d="M133.6542969,223.6533203c0.5742188,0.0126953,1.1196289,0.2451172,1.5351562,0.6518555      c0.4331055,0.425293,0.6816406,1.0131836,0.6816406,1.6132812v0.0161133l-0.0722656,19.0976562      c-0.0014648,0.5932617-0.2456055,1.171875-0.668457,1.5864258c-0.4331055,0.4243164-1.0004883,0.6582031-1.5981445,0.6582031      h-0.1064453l-6.6308594-0.0976562c-0.605957-0.0087891-1.1767578-0.2573242-1.5927734-0.6850586      c-0.4086914-0.4213867-0.6337891-0.9838867-0.6337891-1.5830078v-0.1225586l0.2875977-18.7519531      c0.0195312-1.199707,1.0097656-2.1972656,2.2260742-2.2241211l6.4804688-0.1542969L133.6542969,223.6533203       M133.6054688,213.652832c-0.0898438,0-0.1816406,0-0.28125,0.0083008l-6.4804688,0.1542969      c-6.5800781,0.144043-11.8789062,5.4765625-11.9863281,12.0581055l-0.2890625,18.8383789c0,0.0732422,0,0.1357422,0,0.1992188      c0,3.1914062,1.2373047,6.2563477,3.4521484,8.5419922c2.2783203,2.3413086,5.3789062,3.6787109,8.6318359,3.7250977      l6.7001953,0.0986328c0.0634766,0,0.1259766,0,0.1796875,0c3.2177734,0,6.3007812-1.2651367,8.5976562-3.5161133      c2.3408203-2.2954102,3.6611328-5.4331055,3.6689453-8.7045898l0.0722656-19.0834961c0-0.0175781,0-0.0356445,0-0.0541992      c0-3.2900391-1.328125-6.4448242-3.6777344-8.7504883C139.8964844,214.9179688,136.8144531,213.652832,133.6054688,213.652832      L133.6054688,213.652832z"/>
				<linearGradient id="l" y2="244.17" gradientUnits="userSpaceOnUse" x2="477.25" y1="272.17" x1="477.25">
				<stop stop-color="#E63E00" offset="0"/>
				<stop stop-color="#FFC654" offset="1"/>
			</linearGradient>
			<path stroke-linejoin="round" d="M490.4931641,265.578125c0,3.6386719-2.9501953,6.5883789-6.5888672,6.5883789     h-13.3134766c-3.6386719,0-6.5888672-2.949707-6.5888672-6.5883789v-14.8232422     c0-3.6386719,2.9501953-6.5883789,6.5888672-6.5883789h13.3134766c3.6386719,0,6.5888672,2.949707,6.5888672,6.5883789     V265.578125z" fill-rule="evenodd" stroke="#000" stroke-linecap="round" clip-rule="evenodd" stroke-miterlimit="10" stroke-width="8" fill="url(#l)"/>
				<linearGradient id="k" y2="248.17" gradientUnits="userSpaceOnUse" x2="485.25" y1="268.19" x1="485.25">
				<stop stop-color="#1342BE" offset="0"/>
				<stop stop-color="#7AAAE4" offset="1"/>
			</linearGradient>
			<path fill-rule="evenodd" clip-rule="evenodd" d="M491.4990234,268.1875h-12.5v-20.0209961c0,0,2.9589844,0,6.3330078,0     C490.8320312,248.1665039,491.4990234,268.1875,491.4990234,268.1875z" fill="url(#k)"/>
			<path stroke-miterlimit="10" d="M316.171875,341.8251953c0-5.5-3.2929688-10.2226562-8.0097656-12.328125     c1.4648438-2.1601562,2.3222656-4.7666016,2.3222656-7.5742188c0-3.8730469-1.6386719-7.3554688-4.25-9.8183594     c1.3349609-2.0927734,2.1181641-4.5722656,2.1181641-7.2392578c0-2.671875-0.7861328-5.15625-2.1240234-7.2519531     c2.1953125-2.4023438,3.5449219-5.5888672,3.5449219-9.0996094c0-5.6455078-3.4658203-10.4765625-8.3837891-12.4941406     c0.3632812-1.2226562,0.5654297-2.5146484,0.5654297-3.8554688c0-1.3300781-0.2001953-2.6132812-0.5585938-3.828125     c4.1464844-2.3046875,6.9560547-6.7265625,6.9560547-11.8085938c0-7.4589844-6.0458984-13.5058594-13.5048828-13.5058594     c-0.8173828,0-1.6132812,0.0839844-2.390625,0.2226562c-1.2207031-6.203125-6.6855469-10.8847656-13.2480469-10.8847656     c-1.1298828,0-2.2216797,0.1533203-3.2705078,0.4150391c-3.3916016-4.9697266-9.0966797-8.2333984-15.5664062-8.2333984     c-3.2919922,0-6.3847656,0.8486328-9.0771484,2.3330078c-2.0859375-2.5107422-5.2314453-4.1113281-8.7519531-4.1113281     c-2.0234375,0-3.9199219,0.5341797-5.5664062,1.4609375c-2.0498047-2.0004883-4.8486328-3.2373047-7.9394531-3.2373047     c-3.9414062,0-7.4140625,2.0068359-9.4541016,5.0527344c-2.0761719-2.2285156-5.0283203-3.6313477-8.3154297-3.6313477     c-5.3164062,0-9.7685547,3.652832-11.0146484,8.5825195c-3.3212891,0.3085938-6.2197266,2.0488281-8.0927734,4.59375     c-1.2441406-0.46875-2.5869141-0.7363281-3.9951172-0.7363281c-6.2802734,0-11.3730469,5.0898438-11.3730469,11.3730469     c0,1.125,0.1689453,2.2080078,0.4736328,3.234375c-2.3046875,1.0917969-4.1787109,2.9287109-5.3154297,5.2070312     c-1.1582031-0.3964844-2.3955078-0.6230469-3.6884766-0.6230469c-5.3398438,0-9.8076172,3.6855469-11.0302734,8.6484375     c-1.3134766-0.5292969-2.7470703-0.828125-4.2509766-0.828125c-6.28125,0-11.3740234,5.0898438-11.3740234,11.3730469     c0,2.2626953,0.6689453,4.3662109,1.8095703,6.1386719c-1.3564453,1.8720703-2.1650391,4.1660156-2.1650391,6.6552734     c0,2.1738281,0.6201172,4.1972656,1.6777344,5.9238281c-1.6826172,2.3359375-2.6845703,5.1943359-2.6845703,8.2919922     c0,4.6972656,2.2861328,8.8476562,5.7949219,11.4365234c-3.2675781,2.0820312-5.4404297,5.7285156-5.4404297,9.8886719     c0,3.9355469,1.9443359,7.4091797,4.9179688,9.5371094c-3.8027344,2.3896484-6.3388672,6.609375-6.3388672,11.4316406     c0,7.4589844,6.046875,13.5058594,13.5058594,13.5058594c0.8876953,0,1.7529297-0.0908203,2.5927734-0.2548828     c2.0498047,3.46875,5.5996094,5.9335938,9.7626953,6.5087891c1.2509766,6.1660156,6.7001953,10.8066406,13.2333984,10.8066406     c2.8925781,0,5.5673828-0.9179688,7.7646484-2.4667969c2.46875,3.2226562,6.3447266,5.3085938,10.7167969,5.3085938     c4.3994141,0,8.2949219-2.1123047,10.7607422-5.3671875c2.4169922,3.6601562,6.5615234,6.078125,11.2753906,6.078125     c6.2109375,0,11.4277344-4.1972656,13.0048828-9.9072266c2.2871094,4.2089844,6.7470703,7.0654297,11.8740234,7.0654297     c4.5058594,0,8.4853516-2.2158203,10.9384766-5.6074219c2.0019531,4.9521484,6.8476562,8.4492188,12.5175781,8.4492188     c4.4384766,0,8.3632812-2.1494141,10.8251953-5.4541016c1.6875,0.7587891,3.5537109,1.1904297,5.5244141,1.1904297     c4.0136719,0,7.6083984-1.7617188,10.0820312-4.5429688c2.1835938,1.5146484,4.8291016,2.4082031,7.6875,2.4082031     c7.4599609,0,13.5058594-6.0449219,13.5058594-13.5039062c0-2.3173828-0.5849609-4.4970703-1.6132812-6.4023438     C315.0322266,348.0253906,316.171875,345.0595703,316.171875,341.8251953z" stroke="#000"/>
			<radialGradient id="j" gradientUnits="userSpaceOnUse" cy="298.82" cx="227.67" r="75.355">
				<stop stop-color="#00BB19" offset=".26380"/>
				<stop stop-color="#00B718" offset=".39902"/>
				<stop stop-color="#00AC16" offset=".52811"/>
				<stop stop-color="#009812" offset=".65477"/>
				<stop stop-color="#007D0D" offset=".77990"/>
				<stop stop-color="#005B06" offset=".90279"/>
				<stop stop-color="#003A00" offset="1"/>
			</radialGradient>
			<path d="M267.125,368.6552734c-2.2519531,0-4.2539062-1.3535156-5.1005859-3.4472656     l-5.421875-13.4111328L248.125,363.5175781c-1.0546875,1.4589844-2.6796875,2.2958984-4.4560547,2.2958984     c-2.0214844,0-3.8779297-1.1054688-4.8447266-2.8847656l-9.4638672-17.4160156l-5.2763672,19.1054688     c-0.6572266,2.3769531-2.8339844,4.0371094-5.2939453,4.0371094c-1.8515625,0-3.5712891-0.9296875-4.5996094-2.4863281     l-6.2275391-9.4306641l-6.8251953,9.0078125c-1.0576172,1.3974609-2.65625,2.1982422-4.3837891,2.1982422     c-1.7167969,0-3.3076172-0.7919922-4.3662109-2.1738281l-4.6757812-6.1035156l-6.2841797,4.4296875     c-0.6503906,0.4589844-1.7265625,1.0058594-3.1552734,1.0058594c-2.6083984,0-4.8759766-1.8496094-5.3935547-4.3974609     l-1.1269531-5.5576172l-5.6181641-0.7763672c-1.6621094-0.2294922-3.109375-1.1972656-3.9697266-2.6542969l-2.875-4.8652344     l-5.546875,1.0839844c-0.3613281,0.0703125-0.7177734,0.1064453-1.0585938,0.1064453     c-3.0361328,0-5.5058594-2.4697266-5.5058594-5.5058594c0-1.8955078,0.9707031-3.6367188,2.5957031-4.6582031     l10.0927734-6.3417969l-9.6943359-6.9375c-1-0.7158203-1.5732422-1.8203125-1.5732422-3.03125     c0-1.2734375,0.6503906-2.4482422,1.7392578-3.1416016l9.8300781-6.2636719l-9.3789062-6.9208984     c-1.6171875-1.1933594-2.5449219-3.0146484-2.5449219-4.9990234c0-1.6396484,0.6396484-2.8710938,1.1757812-3.6162109     l3.1103516-4.3173828l-2.7792969-4.5371094c-0.3320312-0.5410156-0.5-1.1289062-0.5-1.7451172     c0-0.7119141,0.2167969-1.3730469,0.6435547-1.9628906l3.2070312-4.4267578l-2.9589844-4.5957031     c-0.3554688-0.5527344-0.5361328-1.1621094-0.5361328-1.8085938c0-1.8603516,1.5136719-3.3730469,3.3740234-3.3730469     c0.4267578,0,0.8496094,0.0820312,1.2558594,0.2470703l8.5556641,3.4541016l2.2070312-8.9589844     c0.3720703-1.5087891,1.7138672-2.5625,3.2626953-2.5625c0.3623047,0,0.7197266,0.0625,1.0947266,0.1914062l6.625,2.2705078     l3.1269531-6.2666016c0.3369141-0.6757812,0.8994141-1.2265625,1.5820312-1.5498047L186.8867188,253.75l-1.9521484-6.5732422     c-0.0957031-0.3232422-0.1425781-0.6357422-0.1425781-0.9560547c0-1.859375,1.5126953-3.3730469,3.3730469-3.3730469     c0.3935547,0,0.7792969,0.0742188,1.1796875,0.2246094l5.6689453,2.1308594l3.5898438-4.8779297     c0.5761719-0.7822266,1.4462891-1.28125,2.3886719-1.3681641l5.6308594-0.5234375l1.3857422-5.4824219     c0.3789062-1.4980469,1.71875-2.5429688,3.2587891-2.5429688c1.2626953,0,2.0839844,0.6787109,2.4609375,1.0830078     l6.8818359,7.3916016l5.6201172-8.3916016c0.6308594-0.9423828,1.6796875-1.5048828,2.8066406-1.5048828     c1.1884766,0,1.9833984,0.6035156,2.3515625,0.9628906l4.2890625,4.1855469l5.2226562-2.9394531     c0.5097656-0.2871094,1.0625-0.4326172,1.6425781-0.4326172c1.0058594,0,1.9521484,0.4462891,2.5976562,1.2236328     l4.2255859,5.0859375l5.7910156-3.1923828c1.6123047-0.8886719,3.3662109-1.3388672,5.2148438-1.3388672     c3.5820312,0,6.9316406,1.7734375,8.9589844,4.7431641l3.1396484,4.6005859l5.4052734-1.3486328     c0.4785156-0.1191406,0.9140625-0.1767578,1.3330078-0.1767578c2.6230469,0,4.8935547,1.8632812,5.3984375,4.4296875     L286.125,252.5l7.7363281-1.3789062c0.375-0.0673828,0.6972656-0.0996094,0.9863281-0.0996094     c3.0351562,0,5.5048828,2.4697266,5.5048828,5.5058594c0,1.9960938-1.0898438,3.8417969-2.8427734,4.8164062     l-5.5986328,3.1123047l1.8125,6.1435547c0.1533203,0.5214844,0.2314453,1.046875,0.2314453,1.5644531     c0,0.5234375-0.0791016,1.0546875-0.2333984,1.5761719l-2.0615234,6.9335938l6.6923828,2.7470703     c2.078125,0.8525391,3.4208984,2.8515625,3.4208984,5.0927734c0,1.7480469-0.7880859,2.9785156-1.4492188,3.7011719     l-4.140625,4.5292969l3.3007812,5.171875c0.5761719,0.9023438,0.8681641,1.8945312,0.8681641,2.9492188     c0,1.0517578-0.2900391,2.0390625-0.8623047,2.9365234l-3.5605469,5.5810547l4.8154297,4.5419922     c1.1220703,1.0576172,1.7392578,2.4775391,1.7392578,3.9980469c0,1.1074219-0.3261719,2.1738281-0.9433594,3.0839844     l-5.359375,7.9033203l8.7197266,3.8925781c1.9863281,0.8867188,3.2705078,2.8583984,3.2705078,5.0224609     c0,1.6152344-0.671875,2.7792969-1.2363281,3.4707031l-3.3798828,4.1464844l2.5410156,4.7080078     c0.4335938,0.8027344,0.6533203,1.6787109,0.6533203,2.6025391c0,3.0351562-2.4697266,5.5039062-5.5058594,5.5039062     c-1.4160156,0-2.4824219-0.5341797-3.1279297-0.9814453l-5.8251953-4.0410156l-4.7119141,5.2978516     c-0.6181641,0.6943359-1.9726562,1.859375-4.1044922,1.859375c-0.7705078,0-1.5253906-0.1640625-2.2431641-0.4863281     l-5.859375-2.6347656l-3.8369141,5.1513672C270.4775391,367.8408203,268.8701172,368.6552734,267.125,368.6552734z" fill="url(#j)"/>
			<path d="M198.65625,292.3964844c-2.0107422,4.9765625-19.8574219,3.0927734-30.5585938,9.4589844     c-2.0810547-14.9560547,3.4746094-23.4042969,8.15625-24.9326172" stroke="#000" stroke-linecap="round" stroke-miterlimit="10" stroke-width="4.1639" fill="none"/>
			<path d="M248.4326172,271.5195312     c2.0117188,4.9765625,19.8574219,3.0927734,30.5595703,9.4589844     c2.0800781-14.9560547-3.4746094-23.4042969-8.1572266-24.9326172" stroke="#000" stroke-linecap="round" stroke-miterlimit="10" stroke-width="4.1639" fill="none"/>
			<path d="M228.2353516,315.4951172     c-8.7744141,13.9179688,15.8066406,16.3613281,27.5332031,29.3496094     c4.2363281-9.9863281,6.0517578-25.4160156-1.5742188-30.1015625" stroke="#000" stroke-linecap="round" stroke-miterlimit="10" stroke-width="4.1639" fill="none"/>
	</g>
</switch>
</svg>
