<?xml version="1.0" encoding="UTF-8" standalone="no"?>
<!-- Generator: Adobe Illustrator 15.0.2, SVG Export Plug-In . SVG Version: 6.00 Build 0)  -->
<!DOCTYPE svg  PUBLIC '-//W3C//DTD SVG 1.1//EN'  'http://www.w3.org/Graphics/SVG/1.1/DTD/svg11.dtd' [
	<!ENTITY ns_flows "http://ns.adobe.com/Flows/1.0/">
	<!ENTITY ns_extend "http://ns.adobe.com/Extensibility/1.0/">
	<!ENTITY ns_ai "http://ns.adobe.com/AdobeIllustrator/10.0/">
	<!ENTITY ns_graphs "http://ns.adobe.com/Graphs/1.0/">
	<!ENTITY ns_vars "http://ns.adobe.com/Variables/1.0/">
	<!ENTITY ns_imrep "http://ns.adobe.com/ImageReplacement/1.0/">
	<!ENTITY ns_sfw "http://ns.adobe.com/SaveForWeb/1.0/">
	<!ENTITY ns_custom "http://ns.adobe.com/GenericCustomNamespace/1.0/">
	<!ENTITY ns_adobe_xpath "http://ns.adobe.com/XPath/1.0/">
	<!ENTITY st0 "fill:none;stroke:#000000;stroke-width:4.1639199;stroke-linecap:round;stroke-miterlimit:10;">
	<!ENTITY st1 "fill-rule:evenodd;clip-rule:evenodd;">
	<!ENTITY st2 "fill-rule:evenodd;clip-rule:evenodd;fill:#FFFFFF;">
	<!ENTITY st3 "stroke:#000000;stroke-miterlimit:10;">
	<!ENTITY st4 "fill:url(#SVGID_13_);">
	<!ENTITY st5 "fill:url(#SVGID_14_);">
	<!ENTITY st6 "fill:url(#SVGID_15_);">
	<!ENTITY st7 "fill-rule:evenodd;clip-rule:evenodd;fill:url(#SVGID_10_);">
	<!ENTITY st8 "fill-rule:evenodd;clip-rule:evenodd;fill:url(#SVGID_11_);">
	<!ENTITY st9 "fill-rule:evenodd;clip-rule:evenodd;fill:url(#SVGID_12_);">
	<!ENTITY st10 "fill-rule:evenodd;clip-rule:evenodd;fill:#353C43;">
	<!ENTITY st11 "fill-rule:evenodd;clip-rule:evenodd;fill:url(#SVGID_1_);">
	<!ENTITY st12 "fill-rule:evenodd;clip-rule:evenodd;fill:url(#SVGID_2_);">
	<!ENTITY st13 "fill-rule:evenodd;clip-rule:evenodd;fill:url(#SVGID_3_);">
	<!ENTITY st14 "fill-rule:evenodd;clip-rule:evenodd;fill:url(#SVGID_4_);">
	<!ENTITY st15 "fill-rule:evenodd;clip-rule:evenodd;fill:url(#SVGID_5_);">
	<!ENTITY st16 "fill-rule:evenodd;clip-rule:evenodd;fill:url(#SVGID_6_);">
	<!ENTITY st17 "fill-rule:evenodd;clip-rule:evenodd;fill:url(#SVGID_7_);">
	<!ENTITY st18 "fill-rule:evenodd;clip-rule:evenodd;fill:url(#SVGID_8_);">
	<!ENTITY st19 "fill-rule:evenodd;clip-rule:evenodd;fill:url(#SVGID_9_);">
]>
<svg style="enable-background:new 0 0 600 600" xmlns="http://www.w3.org/2000/svg" xml:space="preserve" version="1.1" y="0px" x="0px" xmlns:xlink="http://www.w3.org/1999/xlink" viewBox="0 0 600 600">
<switch>
	<foreignObject y="0" x="0" height="1" width="1" requiredExtensions="http://ns.adobe.com/AdobeIllustrator/10.0/">
	</foreignObject>
	<g>
					<linearGradient id="i" y2="22.036" gradientUnits="userSpaceOnUse" x2="300" y1="571.79" x1="300">
					<stop stop-color="#03B304" offset=".25"/>
					<stop stop-color="#B2FEAF" offset="1"/>
				</linearGradient>
				<path fill-rule="evenodd" clip-rule="evenodd" d="M305.6318359,571.7890625      c-22.0126953-18.609375-71.5556641-61.4794922-125.0488281-114.3408203      c-5.574707-5.5087891-11.2666016-10.9951172-16.7714844-16.3007812      c-49.3271484-47.5439453-95.9189453-92.4501953-95.9189453-187.0048828      c0-61.9990234,24.1430664-120.2866211,67.9819336-164.1254883S238.0009766,22.0351562,300,22.0351562      s120.2861328,24.1430664,164.125,67.9819336s67.9824219,102.1264648,67.9824219,164.1254883      c0,94.7988281-44.1396484,137.2099609-95.2480469,186.3183594      c-5.7333984,5.5087891-11.6621094,11.2050781-17.5126953,16.9726562      C365.3662109,510.6494141,324.2900391,552.5898438,305.6318359,571.7890625z" fill="url(#i)"/>
				<path d="M300,39.0351562c29.0546875,0,57.2226562,5.6826172,83.7197266,16.8901367      c25.6113281,10.8320312,48.6191406,26.3466797,68.3847656,46.112793      c19.765625,19.765625,35.2802734,42.7734375,46.1132812,68.3847656      c11.2070312,26.4975586,16.8896484,54.6650391,16.8896484,83.7197266c0,40.0048828-8.2548828,72.2041016-25.9775391,101.3330078      c-16.3837891,26.9277344-39.5371094,49.1738281-64.0498047,72.7275391      c-5.7714844,5.5458984-11.7402344,11.2802734-17.6679688,17.1240234      c-45.1015625,44.4619141-81.2363281,81.09375-102.8525391,103.2070312      c-25.0771484-21.5673828-67.1015625-58.7832031-112.0268555-103.1777344      c-5.6503906-5.5839844-11.3813477-11.1074219-16.9233398-16.4492188      c-24.4233398-23.5400391-47.4916992-45.7744141-64.1611328-73.0351562      c-18.1171875-29.6308594-26.5556641-61.9560547-26.5556641-101.7294922c0-29.0546875,5.6826172-57.222168,16.8901367-83.7197266      c10.8320312-25.6113281,26.3466797-48.6191406,46.112793-68.3847656      c19.765625-19.7661133,42.7734375-35.2807617,68.3842773-46.112793      C242.777832,44.7177734,270.9453125,39.0351562,300,39.0351562 M300,5.0351562      c-137.5800781,0-249.1074219,111.5273438-249.1074219,249.1074219      c0,112.9394531,62.0849609,160.3964844,117.7412109,215.3974609      c73.2197266,72.3544922,138.2255859,125.4248047,138.2255859,125.4248047s49.3515625-51.4189453,124.421875-125.4248047      c57.2207031-56.4091797,117.8261719-101.9072266,117.8261719-215.3974609      C549.1074219,116.5625,437.5800781,5.0351562,300,5.0351562L300,5.0351562z"/>
			<path clip-rule="evenodd" d="M137.0708008,213.6679688c0,27.9438477,254.6137695,27.800293,254.6137695,0     c0-27.7910156-29.8886719-67.6459961-29.8886719-67.6459961H165.1762695     C165.1762695,146.0219727,137.0708008,185.7333984,137.0708008,213.6679688L137.0708008,213.6679688z" fill-rule="evenodd"/>
				<linearGradient id="h" y2="158.19" gradientUnits="userSpaceOnUse" x2="264.37" y1="222.42" x1="264.37">
				<stop stop-color="#1342BE" offset="0"/>
				<stop stop-color="#B9D6FE" offset="1"/>
			</linearGradient>
			<path fill-rule="evenodd" clip-rule="evenodd" d="M186.8198242,218.418457     c-24.2255859-2.9125977-33.9038086-6.4443359-37.4169922-8.190918     c0.8950195-9.0883789,5.1166992-21.0610352,12.3583984-34.953125c3.6567383-7.0078125,7.3579102-13.065918,9.9384766-17.081543     c11.777832,0,172.4067383,0,183.7954102,0c2.7441406,4.015625,6.7753906,10.2167969,10.765625,17.4033203     c7.5273438,13.597168,12.078125,25.6953125,13.0664062,34.6118164     c-3.5664062,1.7578125-13.3105469,5.2880859-37.5878906,8.2016602     c-21.4902344,2.5810547-49.0507812,4.0063477-77.6035156,4.0063477     C236.1201172,222.3706055,207.8535156,220.9550781,186.8198242,218.418457" fill="url(#h)"/>
			<path clip-rule="evenodd" d="M123.1152344,237.3632812c0-38.894043,282.5244141-38.6889648,282.5244141,0     c0,38.699707-9.0507812,94.1748047-9.0507812,94.1748047H131.675293     C131.675293,331.5380859,123.1152344,276.2602539,123.1152344,237.3632812L123.1152344,237.3632812z" fill-rule="evenodd"/>
				<linearGradient id="g" y2="220.43" gradientUnits="userSpaceOnUse" x2="264.38" y1="319.39" x1="264.38">
				<stop stop-color="#0F0F0F" offset="0"/>
				<stop stop-color="#353C43" offset=".50920"/>
				<stop stop-color="#0F0F0F" offset=".50920"/>
				<stop stop-color="#353C43" offset="1"/>
			</linearGradient>
			<path fill-rule="evenodd" clip-rule="evenodd" d="M142.215332,319.3857422c-2.375-17.3515625-6.793457-53.1640625-6.9375-80.6240234     c1.9174805-1.7197266,10.5209961-7.6621094,41.4057617-12.5102539     c23.9282227-3.746582,54.9819336-5.8173828,87.4165039-5.8173828c32.5141602,0,63.668457,2.0708008,87.7387695,5.8354492     c30.9902344,4.8569336,39.6933594,10.7993164,41.6386719,12.5288086     c-0.1601562,27.3432617-4.8476562,63.2641602-7.3496094,80.5874023     C367.6318359,319.3857422,160.8564453,319.3857422,142.215332,319.3857422" fill="url(#g)"/>
					<linearGradient id="f" y2="248.33" gradientUnits="userSpaceOnUse" x2="373.32" y1="286.34" x1="373.32">
					<stop stop-color="#E63E00" offset=".10429"/>
					<stop stop-color="#FFC654" offset=".74233"/>
				</linearGradient>
				<path fill-rule="evenodd" clip-rule="evenodd" d="M360.4697266,286.3378906c-10.4736328,0-18.9941406-8.5249023-18.9941406-19.0039062      c0-10.4794922,8.5205078-19.0048828,18.9941406-19.0048828h25.6855469c10.4785156,0,19.0039062,8.5253906,19.0039062,19.0048828      c0,10.4790039-8.5253906,19.0039062-19.0039062,19.0039062H360.4697266z" fill="url(#f)"/>
				<path d="M386.1552734,254.3291016c7.1699219,0,13.0039062,5.8339844,13.0039062,13.0048828      c0,7.1704102-5.8339844,13.0039062-13.0039062,13.0039062h-25.6855469c-7.1650391,0-12.9941406-5.8334961-12.9941406-13.0039062      c0-7.1708984,5.8291016-13.0048828,12.9941406-13.0048828H386.1552734 M386.1552734,242.3291016h-25.6855469      c-13.7851562,0-24.9941406,11.2211914-24.9941406,25.0048828s11.2089844,25.0039062,24.9941406,25.0039062h25.6855469      c13.7929688,0,25.0039062-11.2202148,25.0039062-25.0039062S399.9482422,242.3291016,386.1552734,242.3291016      L386.1552734,242.3291016z"/>
				<linearGradient id="e" y2="254.49" gradientUnits="userSpaceOnUse" x2="362.84" y1="280.18" x1="362.84">
				<stop stop-color="#1342BE" offset="0"/>
				<stop stop-color="#B9D6FE" offset="1"/>
			</linearGradient>
			<path fill-rule="evenodd" clip-rule="evenodd" d="M349.9931641,254.4907227h25.6855469     c7.0898438,0,12.84375,5.7451172,12.84375,12.8432617c0,7.097168-5.7539062,12.8432617-12.84375,12.8432617h-25.6855469     c-7.0878906,0-12.8417969-5.7460938-12.8417969-12.8432617     C337.1513672,260.2358398,342.9052734,254.4907227,349.9931641,254.4907227L349.9931641,254.4907227z" fill="url(#e)"/>
					<linearGradient id="d" y2="248.33" gradientUnits="userSpaceOnUse" x2="153.65" y1="286.34" x1="153.65">
					<stop stop-color="#E63E00" offset=".10429"/>
					<stop stop-color="#FFC654" offset=".74233"/>
				</linearGradient>
				<path fill-rule="evenodd" clip-rule="evenodd" d="M140.8134766,286.3378906c-10.4794922,0-19.0048828-8.5249023-19.0048828-19.0039062      c0-10.4794922,8.5253906-19.0048828,19.0048828-19.0048828h25.6845703c10.4741211,0,18.9951172,8.5253906,18.9951172,19.0048828      c0,10.4790039-8.5209961,19.0039062-18.9951172,19.0039062H140.8134766z" fill="url(#d)"/>
				<path d="M166.4980469,254.3291016c7.1655273,0,12.9951172,5.8339844,12.9951172,13.0048828      c0,7.1704102-5.8295898,13.0039062-12.9951172,13.0039062h-25.6845703c-7.1708984,0-13.0048828-5.8334961-13.0048828-13.0039062      c0-7.1708984,5.8339844-13.0048828,13.0048828-13.0048828H166.4980469 M166.4980469,242.3291016h-25.6845703      c-13.7939453,0-25.0048828,11.2211914-25.0048828,25.0048828s11.2109375,25.0039062,25.0048828,25.0039062h25.6845703      c13.7851562,0,24.9951172-11.2202148,24.9951172-25.0039062S180.2832031,242.3291016,166.4980469,242.3291016      L166.4980469,242.3291016z"/>
				<linearGradient id="c" y2="254.49" gradientUnits="userSpaceOnUse" x2="-894.16" gradientTransform="matrix(-1 0 0 1 -730.03 0)" y1="280.18" x1="-894.16">
				<stop stop-color="#1342BE" offset="0"/>
				<stop stop-color="#B9D6FE" offset="1"/>
			</linearGradient>
			<path fill-rule="evenodd" clip-rule="evenodd" d="M176.9746094,254.4907227h-25.6845703     c-7.0908203,0-12.8447266,5.7451172-12.8447266,12.8432617c0,7.097168,5.7539062,12.8432617,12.8447266,12.8432617h25.6845703     c7.0888672,0,12.8417969-5.7460938,12.8417969-12.8432617     C189.8164062,260.2358398,184.0634766,254.4907227,176.9746094,254.4907227L176.9746094,254.4907227z" fill="url(#c)"/>
			<path clip-rule="evenodd" d="M161.1875,227.3178711c0-25.3725586,206.3798828-25.2387695,206.3798828,0     c0,25.2373047-24.2246094,61.4169922-24.2246094,61.4169922H183.9790039     C183.9692383,288.7348633,161.1875,252.6899414,161.1875,227.3178711L161.1875,227.3178711z" fill-rule="evenodd"/>
				<linearGradient id="b" y2="220.5" gradientUnits="userSpaceOnUse" x2="264.36" y1="276.58" x1="264.36">
				<stop stop-color="#7F7E80" offset="0"/>
				<stop stop-color="#7F7E80" offset=".50920"/>
				<stop stop-color="#C8C8C8" offset=".50920"/>
				<stop stop-color="#7F7E80" offset="1"/>
			</linearGradient>
			<path fill-rule="evenodd" clip-rule="evenodd" d="M190.8969727,276.5820312     c-6.3452148-11.2294922-15.9892578-31.0263672-17.3774414-45.8134766     c3.1005859-1.5239258,10.9882812-4.3740234,29.2792969-6.7851562     c17.0463867-2.2490234,38.8417969-3.4858398,61.3823242-3.4858398c22.59375,0,44.4799805,1.2543945,61.612793,3.4951172     c18.3378906,2.4116211,26.2695312,5.2607422,29.4160156,6.7841797     c-0.8515625,8.0581055-4.5175781,18.9013672-10.5117188,31.0454102     c-2.9414062,5.9414062-5.9082031,11.1303711-8.0859375,14.7597656     C324.8173828,276.5820312,202.9960938,276.5820312,190.8969727,276.5820312" fill="url(#b)"/>
			<polygon points="140.24 322.98 183.05 322.98 183.05 365.79 140.24 365.79" clip-rule="evenodd" fill-rule="evenodd"/>
				<linearGradient id="a" y2="335.14" gradientUnits="userSpaceOnUse" x2="161.64" y1="353.63" x1="161.64">
				<stop stop-color="#0F0F0F" offset="0"/>
				<stop stop-color="#353C43" offset="1"/>
			</linearGradient>
			<path fill-rule="evenodd" clip-rule="evenodd" d="M152.3955078,353.6298828c0-7.5185547,0-10.9697266,0-18.4882812     c7.5288086,0,10.9697266,0,18.4980469,0c0,7.5185547,0,10.9697266,0,18.4882812     C163.3652344,353.6298828,159.9243164,353.6298828,152.3955078,353.6298828" fill="url(#a)"/>
			<polygon points="345.71 322.98 388.52 322.98 388.52 365.79 345.71 365.79" clip-rule="evenodd" fill-rule="evenodd"/>
				<linearGradient id="o" y2="335.14" gradientUnits="userSpaceOnUse" x2="367.12" y1="353.63" x1="367.12">
				<stop stop-color="#0F0F0F" offset="0"/>
				<stop stop-color="#353C43" offset="1"/>
			</linearGradient>
			<path fill-rule="evenodd" clip-rule="evenodd" d="M357.8720703,353.6298828c0-7.5185547,0-10.9697266,0-18.4882812     c7.5195312,0,10.96875,0,18.4882812,0c0,7.5185547,0,10.9697266,0,18.4882812     C368.8408203,353.6298828,365.3916016,353.6298828,357.8720703,353.6298828" fill="url(#o)"/>
				<linearGradient id="n" y2="117.51" gradientUnits="userSpaceOnUse" x2="217.29" y1="143.19" x1="217.29">
				<stop stop-color="#9F0000" offset="0"/>
				<stop stop-color="#FF2100" offset="1"/>
			</linearGradient>
			<path fill-rule="evenodd" clip-rule="evenodd" d="M170.2036133,117.5131836h94.1738281     c7.0898438,0,12.8432617,5.7451172,12.8432617,12.8432617c0,7.0888672-5.753418,12.8334961-12.8432617,12.8334961h-94.1738281     c-7.0888672,0-12.8427734-5.7446289-12.8427734-12.8334961     C157.3608398,123.2583008,163.1147461,117.5131836,170.2036133,117.5131836L170.2036133,117.5131836z" fill="url(#n)"/>
				<linearGradient id="m" y2="117.51" gradientUnits="userSpaceOnUse" x2="311.46" y1="143.19" x1="311.46">
				<stop stop-color="#012DC7" offset="0"/>
				<stop stop-color="#0343D7" offset="1"/>
			</linearGradient>
			<path fill-rule="evenodd" clip-rule="evenodd" d="M264.3774414,117.5131836h94.1762695     c7.0878906,0,12.8417969,5.7451172,12.8417969,12.8432617c0,7.0888672-5.7539062,12.8334961-12.8417969,12.8334961h-94.1762695     c-7.0888672,0-12.8427734-5.7446289-12.8427734-12.8334961     C251.534668,123.2583008,257.2885742,117.5131836,264.3774414,117.5131836L264.3774414,117.5131836z" fill="url(#m)"/>
			<path fill-rule="evenodd" clip-rule="evenodd" d="M233.7714844,117.5131836h61.2578125     c4.6064453,0,8.3525391,5.7451172,8.3525391,12.8432617c0,7.0888672-3.7460938,12.8334961-8.3525391,12.8334961h-61.2578125     c-4.605957,0-8.3525391-5.7446289-8.3525391-12.8334961     C225.4189453,123.2583008,229.1655273,117.5131836,233.7714844,117.5131836L233.7714844,117.5131836z" fill="#fff"/>
					<linearGradient id="l" y2="223.5" gradientUnits="userSpaceOnUse" x2="257.87" y1="303.05" x1="271.89">
					<stop stop-color="#FFED98" offset="0"/>
					<stop stop-color="#FFED98" offset=".067485"/>
					<stop stop-color="#4B3502" offset=".19018"/>
					<stop stop-color="#93761D" offset=".25153"/>
					<stop stop-color="#FFED98" offset=".39264"/>
					<stop stop-color="#FFED98" offset=".73006"/>
					<stop stop-color="#93761D" offset=".83436"/>
					<stop stop-color="#FFED98" offset=".93252"/>
				</linearGradient>
				<path d="M254.3442383,301.8330078c-4.3740234,0-8.4951172-1.9868164-11.2109375-5.3935547      L228.65625,278.2802734c-2.0493164-2.5571289-3.1279297-5.722168-3.1279297-8.9399414      c0-1.0673828,0.1162109-2.1293945,0.3486328-3.1850586l5.1787109-22.644043      c0.9711914-4.253418,3.824707-7.8364258,7.7563477-9.7333984l20.9199219-10.0693359      c1.9663086-0.9458008,4.0913086-1.4160156,6.215332-1.4160156c2.1337891,0,4.2578125,0.4702148,6.2231445,1.4160156      l20.9223633,10.0693359c3.9316406,1.8969727,6.7939453,5.4799805,7.7558594,9.7333984l5.1669922,22.644043      c0.2421875,1.0556641,0.3583984,2.1176758,0.3583984,3.1850586c0,3.2177734-1.078125,6.3828125-3.1279297,8.9399414      l-14.4760742,18.1591797c-2.7148438,3.4067383-6.8466797,5.3935547-11.2109375,5.3935547H254.3442383" fill="url(#l)"/>
					<linearGradient id="k" y2="244.11" gradientUnits="userSpaceOnUse" x2="284.28" y1="280.77" x1="247.62">
					<stop stop-color="#FFED98" offset="0"/>
					<stop stop-color="#FFED98" offset=".067485"/>
					<stop stop-color="#4B3502" offset=".19018"/>
					<stop stop-color="#93761D" offset=".25153"/>
					<stop stop-color="#FFED98" offset=".39264"/>
					<stop stop-color="#FFED98" offset=".73006"/>
					<stop stop-color="#93761D" offset=".83436"/>
					<stop stop-color="#FFED98" offset=".93252"/>
				</linearGradient>
				<polygon points="265.95 236.63 286.88 246.7 292.05 269.34 277.56 287.49 254.34 287.49 239.87 269.34 245.02 246.7" fill="url(#k)"/>
				<path fill-rule="evenodd" clip-rule="evenodd" d="M126.2705078,221.5c-9.5058594,0-15.8125-4.4389648-15.8125-7.375      s6.3066406-7.375,15.8125-7.375s15.8125,4.4389648,15.8125,7.375S135.7763672,221.5,126.2705078,221.5z" fill="#353C43"/>
				<path d="M126.2705078,212.75c3.3149414,0,5.8759766,0.6523438,7.6176758,1.375      c-1.7416992,0.7226562-4.3027344,1.375-7.6176758,1.375s-5.8759766-0.6523438-7.6176758-1.375      C120.3945312,213.4023438,122.9555664,212.75,126.2705078,212.75 M126.2705078,200.75      c-12.046875,0-21.8125,5.9882812-21.8125,13.375s9.765625,13.375,21.8125,13.375s21.8125-5.9882812,21.8125-13.375      S138.3173828,200.75,126.2705078,200.75L126.2705078,200.75z"/>
				<path fill-rule="evenodd" clip-rule="evenodd" d="M399.7705078,221.5c-9.5058594,0-15.8125-4.4389648-15.8125-7.375      s6.3066406-7.375,15.8125-7.375s15.8125,4.4389648,15.8125,7.375S409.2763672,221.5,399.7705078,221.5z" fill="#353C43"/>
				<path d="M399.7705078,212.75c3.3144531,0,5.8759766,0.6523438,7.6181641,1.375      c-1.7421875,0.7226562-4.3037109,1.375-7.6181641,1.375s-5.8759766-0.6523438-7.6181641-1.375      C393.8945312,213.4023438,396.4560547,212.75,399.7705078,212.75 M399.7705078,200.75      c-12.046875,0-21.8125,5.9882812-21.8125,13.375s9.765625,13.375,21.8125,13.375s21.8125-5.9882812,21.8125-13.375      S411.8173828,200.75,399.7705078,200.75L399.7705078,200.75z"/>
			<path stroke-miterlimit="10" d="M489.171875,341.8251953c0-5.5-3.2929688-10.2226562-8.0097656-12.328125     c1.4648438-2.1601562,2.3222656-4.7666016,2.3222656-7.5742188c0-3.8730469-1.6386719-7.3554688-4.25-9.8183594     c1.3349609-2.0927734,2.1181641-4.5722656,2.1181641-7.2392578c0-2.671875-0.7861328-5.1557617-2.1240234-7.2524414     c2.1953125-2.4013672,3.5449219-5.5883789,3.5449219-9.0991211c0-5.6455078-3.4658203-10.4760742-8.3837891-12.4941406     c0.3632812-1.222168,0.5654297-2.5146484,0.5654297-3.8549805c0-1.3310547-0.2001953-2.6137695-0.5585938-3.8286133     c4.1464844-2.3051758,6.9560547-6.7270508,6.9560547-11.8081055c0-7.4599609-6.0458984-13.5068359-13.5048828-13.5068359     c-0.8173828,0-1.6132812,0.0849609-2.390625,0.2236328c-1.2207031-6.2036133-6.6855469-10.8857422-13.2480469-10.8857422     c-1.1298828,0-2.2216797,0.1538086-3.2705078,0.4155273c-3.3916016-4.9692383-9.0966797-8.2338867-15.5664062-8.2338867     c-3.2919922,0-6.3847656,0.8491211-9.0771484,2.3334961c-2.0859375-2.5112305-5.2314453-4.1113281-8.7519531-4.1113281     c-2.0234375,0-3.9199219,0.5341797-5.5664062,1.4609375c-2.0498047-2.0004883-4.8486328-3.2373047-7.9394531-3.2373047     c-3.9414062,0-7.4140625,2.0068359-9.4541016,5.0532227c-2.0761719-2.2294922-5.0283203-3.6318359-8.3154297-3.6318359     c-5.3164062,0-9.7685547,3.6533203-11.0146484,8.5830078c-3.3212891,0.3081055-6.2197266,2.0478516-8.0927734,4.5927734     c-1.2441406-0.4677734-2.5869141-0.7353516-3.9951172-0.7353516c-6.2802734,0-11.3730469,5.0898438-11.3730469,11.3725586     c0,1.1245117,0.1689453,2.2080078,0.4736328,3.2338867c-2.3046875,1.0917969-4.1787109,2.9291992-5.3154297,5.2075195     c-1.1582031-0.3969727-2.3955078-0.6230469-3.6884766-0.6230469c-5.3398438,0-9.8076172,3.6855469-11.0302734,8.6489258     c-1.3134766-0.5302734-2.7470703-0.8291016-4.2509766-0.8291016c-6.28125,0-11.3740234,5.0898438-11.3740234,11.3730469     c0,2.2631836,0.6689453,4.3666992,1.8095703,6.1386719c-1.3564453,1.8725586-2.1650391,4.1669922-2.1650391,6.6557617     c0,2.1738281,0.6201172,4.1972656,1.6777344,5.9238281c-1.6826172,2.3359375-2.6845703,5.1938477-2.6845703,8.2924805     c0,4.6967773,2.2861328,8.847168,5.7949219,11.4360352c-3.2675781,2.0820312-5.4404297,5.7285156-5.4404297,9.8886719     c0,3.9355469,1.9443359,7.4091797,4.9179688,9.5371094c-3.8027344,2.3896484-6.3388672,6.609375-6.3388672,11.4316406     c0,7.4589844,6.046875,13.5058594,13.5058594,13.5058594c0.8876953,0,1.7529297-0.0908203,2.5927734-0.2548828     c2.0498047,3.46875,5.5996094,5.9335938,9.7626953,6.5087891c1.2509766,6.1660156,6.7001953,10.8066406,13.2333984,10.8066406     c2.8925781,0,5.5673828-0.9179688,7.7646484-2.4667969c2.46875,3.2226562,6.3447266,5.3085938,10.7167969,5.3085938     c4.3994141,0,8.2949219-2.1123047,10.7607422-5.3671875c2.4169922,3.6601562,6.5615234,6.078125,11.2753906,6.078125     c6.2109375,0,11.4277344-4.1972656,13.0048828-9.9072266c2.2871094,4.2089844,6.7470703,7.0654297,11.8740234,7.0654297     c4.5058594,0,8.4853516-2.2158203,10.9384766-5.6074219c2.0019531,4.9521484,6.8476562,8.4492188,12.5175781,8.4492188     c4.4384766,0,8.3632812-2.1494141,10.8251953-5.4541016c1.6875,0.7587891,3.5537109,1.1904297,5.5244141,1.1904297     c4.0136719,0,7.6083984-1.7617188,10.0820312-4.5429688c2.1835938,1.5146484,4.8291016,2.4082031,7.6875,2.4082031     c7.4599609,0,13.5058594-6.0449219,13.5058594-13.5039062c0-2.3173828-0.5849609-4.4970703-1.6132812-6.4023438     C488.0322266,348.0253906,489.171875,345.0595703,489.171875,341.8251953z" stroke="#000"/>
			<radialGradient id="j" gradientUnits="userSpaceOnUse" cy="298.82" cx="400.67" r="75.355">
				<stop stop-color="#00BB19" offset=".26380"/>
				<stop stop-color="#00B718" offset=".39902"/>
				<stop stop-color="#00AC16" offset=".52811"/>
				<stop stop-color="#009812" offset=".65477"/>
				<stop stop-color="#007D0D" offset=".77990"/>
				<stop stop-color="#005B06" offset=".90279"/>
				<stop stop-color="#003A00" offset="1"/>
			</radialGradient>
			<path d="M440.125,368.6552734c-2.2519531,0-4.2539062-1.3535156-5.1005859-3.4472656     l-5.421875-13.4111328L421.125,363.5175781c-1.0546875,1.4589844-2.6796875,2.2958984-4.4560547,2.2958984     c-2.0214844,0-3.8779297-1.1054688-4.8447266-2.8847656l-9.4638672-17.4160156l-5.2763672,19.1054688     c-0.6572266,2.3769531-2.8339844,4.0371094-5.2939453,4.0371094c-1.8515625,0-3.5712891-0.9296875-4.5996094-2.4863281     l-6.2275391-9.4306641l-6.8251953,9.0078125c-1.0576172,1.3974609-2.65625,2.1982422-4.3837891,2.1982422     c-1.7167969,0-3.3076172-0.7919922-4.3662109-2.1738281l-4.6757812-6.1035156l-6.2841797,4.4296875     c-0.6503906,0.4589844-1.7265625,1.0058594-3.1552734,1.0058594c-2.6083984,0-4.8759766-1.8496094-5.3935547-4.3974609     l-1.1269531-5.5576172l-5.6181641-0.7763672c-1.6621094-0.2294922-3.109375-1.1972656-3.9697266-2.6542969l-2.875-4.8652344     l-5.546875,1.0839844c-0.3613281,0.0703125-0.7177734,0.1064453-1.0585938,0.1064453     c-3.0361328,0-5.5058594-2.4697266-5.5058594-5.5058594c0-1.8955078,0.9707031-3.6367188,2.5957031-4.6582031     l10.0927734-6.3417969l-9.6943359-6.9375c-1-0.7158203-1.5732422-1.8203125-1.5732422-3.03125     c0-1.2734375,0.6503906-2.4482422,1.7392578-3.1416016l9.8300781-6.2636719l-9.3789062-6.9208984     c-1.6171875-1.1933594-2.5449219-3.0146484-2.5449219-4.9985352c0-1.6401367,0.6396484-2.8720703,1.1757812-3.6166992     l3.1103516-4.3173828l-2.7792969-4.5371094c-0.3320312-0.5415039-0.5-1.128418-0.5-1.7451172     c0-0.7124023,0.2167969-1.3730469,0.6435547-1.9628906l3.2070312-4.4267578l-2.9589844-4.5961914     c-0.3554688-0.5527344-0.5361328-1.1616211-0.5361328-1.8085938c0-1.8598633,1.5136719-3.3730469,3.3740234-3.3730469     c0.4267578,0,0.8496094,0.0830078,1.2558594,0.2475586l8.5556641,3.4536133l2.2070312-8.9584961     c0.3720703-1.5087891,1.7138672-2.5625,3.2626953-2.5625c0.3623047,0,0.7197266,0.0625,1.0947266,0.190918l6.625,2.2709961     l3.1269531-6.2670898c0.3369141-0.6757812,0.8994141-1.2260742,1.5820312-1.5493164l6.1962891-2.9350586l-1.9521484-6.5727539     c-0.0957031-0.3227539-0.1425781-0.6357422-0.1425781-0.9560547c0-1.8598633,1.5126953-3.3725586,3.3730469-3.3725586     c0.3935547,0,0.7792969,0.0732422,1.1796875,0.2236328l5.6689453,2.1313477l3.5898438-4.8779297     c0.5761719-0.7822266,1.4462891-1.28125,2.3886719-1.3686523l5.6308594-0.5224609l1.3857422-5.4829102     c0.3789062-1.4975586,1.71875-2.543457,3.2587891-2.543457c1.2626953,0,2.0839844,0.6791992,2.4609375,1.0834961     l6.8818359,7.3911133l5.6201172-8.3911133c0.6308594-0.9423828,1.6796875-1.5048828,2.8066406-1.5048828     c1.1884766,0,1.9833984,0.6030273,2.3515625,0.9628906l4.2890625,4.1855469l5.2226562-2.9394531     c0.5097656-0.2871094,1.0625-0.4326172,1.6425781-0.4326172c1.0058594,0,1.9521484,0.4458008,2.5976562,1.2231445     l4.2255859,5.0869141l5.7910156-3.1928711c1.6123047-0.8886719,3.3662109-1.3393555,5.2148438-1.3393555     c3.5820312,0,6.9316406,1.7734375,8.9589844,4.7436523l3.1396484,4.6010742l5.4052734-1.3491211     c0.4785156-0.1191406,0.9140625-0.1772461,1.3330078-0.1772461c2.6230469,0,4.8935547,1.8632812,5.3984375,4.4301758     L459.125,252.5l7.7363281-1.3793945c0.375-0.0668945,0.6972656-0.0996094,0.9863281-0.0996094     c3.0351562,0,5.5048828,2.4702148,5.5048828,5.5068359c0,1.9956055-1.0898438,3.8408203-2.8427734,4.815918l-5.5986328,3.1123047     l1.8125,6.1435547c0.1533203,0.5209961,0.2314453,1.0473633,0.2314453,1.5649414     c0,0.5234375-0.0791016,1.0537109-0.2333984,1.5756836l-2.0615234,6.934082l6.6923828,2.746582     c2.078125,0.8525391,3.4208984,2.8515625,3.4208984,5.0927734c0,1.7485352-0.7880859,2.9780273-1.4492188,3.7011719     l-4.140625,4.5288086l3.3007812,5.1723633c0.5761719,0.9023438,0.8681641,1.8945312,0.8681641,2.9492188     c0,1.0517578-0.2900391,2.0390625-0.8623047,2.9365234l-3.5605469,5.5810547l4.8154297,4.5419922     c1.1220703,1.0576172,1.7392578,2.4775391,1.7392578,3.9980469c0,1.1074219-0.3261719,2.1738281-0.9433594,3.0839844     l-5.359375,7.9033203l8.7197266,3.8925781c1.9863281,0.8867188,3.2705078,2.8583984,3.2705078,5.0224609     c0,1.6152344-0.671875,2.7792969-1.2363281,3.4707031l-3.3798828,4.1464844l2.5410156,4.7080078     c0.4335938,0.8027344,0.6533203,1.6787109,0.6533203,2.6025391c0,3.0351562-2.4697266,5.5039062-5.5058594,5.5039062     c-1.4160156,0-2.4824219-0.5341797-3.1279297-0.9814453l-5.8251953-4.0410156l-4.7119141,5.2978516     c-0.6181641,0.6943359-1.9726562,1.859375-4.1044922,1.859375c-0.7705078,0-1.5253906-0.1640625-2.2431641-0.4863281     l-5.859375-2.6347656l-3.8369141,5.1513672C443.4775391,367.8408203,441.8701172,368.6552734,440.125,368.6552734z" fill="url(#j)"/>
			<path d="M371.65625,292.3969727c-2.0107422,4.9755859-19.8574219,3.0922852-30.5585938,9.4584961     c-2.0810547-14.9560547,3.4746094-23.4038086,8.15625-24.9326172" stroke="#000" stroke-linecap="round" stroke-miterlimit="10" stroke-width="4.1639" fill="none"/>
			<path d="M421.4326172,271.5200195     c2.0117188,4.9755859,19.8574219,3.0922852,30.5595703,9.4589844c2.0800781-14.956543-3.4746094-23.4042969-8.1572266-24.9331055     " stroke="#000" stroke-linecap="round" stroke-miterlimit="10" stroke-width="4.1639" fill="none"/>
			<path d="M401.2353516,315.4951172     c-8.7744141,13.9179688,15.8066406,16.3613281,27.5332031,29.3496094     c4.2363281-9.9863281,6.0517578-25.4160156-1.5742188-30.1015625" stroke="#000" stroke-linecap="round" stroke-miterlimit="10" stroke-width="4.1639" fill="none"/>
	</g>
</switch>
</svg>
