<?xml version="1.0" encoding="UTF-8" standalone="no"?>
<!-- Generator: Adobe Illustrator 15.0.2, SVG Export Plug-In . SVG Version: 6.00 Build 0)  -->
<!DOCTYPE svg  PUBLIC '-//W3C//DTD SVG 1.1//EN'  'http://www.w3.org/Graphics/SVG/1.1/DTD/svg11.dtd' [
	<!ENTITY ns_flows "http://ns.adobe.com/Flows/1.0/">
	<!ENTITY ns_extend "http://ns.adobe.com/Extensibility/1.0/">
	<!ENTITY ns_ai "http://ns.adobe.com/AdobeIllustrator/10.0/">
	<!ENTITY ns_graphs "http://ns.adobe.com/Graphs/1.0/">
	<!ENTITY ns_vars "http://ns.adobe.com/Variables/1.0/">
	<!ENTITY ns_imrep "http://ns.adobe.com/ImageReplacement/1.0/">
	<!ENTITY ns_sfw "http://ns.adobe.com/SaveForWeb/1.0/">
	<!ENTITY ns_custom "http://ns.adobe.com/GenericCustomNamespace/1.0/">
	<!ENTITY ns_adobe_xpath "http://ns.adobe.com/XPath/1.0/">
]>
<svg xmlns="http://www.w3.org/2000/svg" enable-background="new 0 0 600 600" xml:space="preserve" version="1.1" y="0px" x="0px" xmlns:xlink="http://www.w3.org/1999/xlink" viewBox="0 0 600 600">
<switch>
	<foreignObject y="0" x="0" height="1" width="1" requiredExtensions="http://ns.adobe.com/AdobeIllustrator/10.0/">
	</foreignObject>
	<g>
						<linearGradient id="h" y2="22.036" gradientUnits="userSpaceOnUse" x2="300" y1="571.79" x1="300">
						<stop stop-color="#03B304" offset=".25"/>
						<stop stop-color="#B2FEAF" offset="1"/>
					</linearGradient>
					<path fill="url(#h)" fill-rule="evenodd" clip-rule="evenodd" d="M305.6318359,571.7890625       c-22.0126953-18.609375-71.5556641-61.4794922-125.0488281-114.3408203       c-5.574707-5.5087891-11.2666016-10.9951172-16.7714844-16.3007812       c-49.3271484-47.5439453-95.9189453-92.4501953-95.9189453-187.0048828       c0-61.9990234,24.1430664-120.2866211,67.9819336-164.1254883S238.0009766,22.0351562,300,22.0351562       s120.2861328,24.1430664,164.125,67.9819336s67.9824219,102.1264648,67.9824219,164.1254883       c0,94.7988281-44.1396484,137.2099609-95.2480469,186.3183594       c-5.7333984,5.5087891-11.6621094,11.2050781-17.5126953,16.9726562       C365.3662109,510.6494141,324.2900391,552.5898438,305.6318359,571.7890625z"/>
					<path d="M300,39.0351562c29.0546875,0,57.2226562,5.6826172,83.7197266,16.8901367       c25.6113281,10.8320312,48.6191406,26.3466797,68.3847656,46.112793       c19.765625,19.765625,35.2802734,42.7734375,46.1132812,68.3847656       c11.2070312,26.4975586,16.8896484,54.6650391,16.8896484,83.7197266       c0,40.0048828-8.2548828,72.2041016-25.9775391,101.3330078       c-16.3837891,26.9277344-39.5371094,49.1738281-64.0498047,72.7275391       c-5.7714844,5.5458984-11.7402344,11.2802734-17.6679688,17.1240234       c-45.1015625,44.4619141-81.2363281,81.09375-102.8525391,103.2070312       c-25.0771484-21.5673828-67.1015625-58.7832031-112.0268555-103.1777344       c-5.6503906-5.5839844-11.3813477-11.1074219-16.9233398-16.4492188       c-24.4233398-23.5400391-47.4916992-45.7744141-64.1611328-73.0351562       c-18.1171875-29.6308594-26.5556641-61.9560547-26.5556641-101.7294922       c0-29.0546875,5.6826172-57.222168,16.8901367-83.7197266c10.8320312-25.6113281,26.3466797-48.6191406,46.112793-68.3847656       c19.765625-19.7661133,42.7734375-35.2807617,68.3842773-46.112793       C242.777832,44.7177734,270.9453125,39.0351562,300,39.0351562 M300,5.0351562       c-137.5800781,0-249.1074219,111.5273438-249.1074219,249.1074219       c0,112.9394531,62.0849609,160.3964844,117.7412109,215.3974609       c73.2197266,72.3544922,138.2255859,125.4248047,138.2255859,125.4248047s49.3515625-51.4189453,124.421875-125.4248047       c57.2207031-56.4091797,117.8261719-101.9072266,117.8261719-215.3974609       C549.1074219,116.5625,437.5800781,5.0351562,300,5.0351562L300,5.0351562z"/>
				<polygon points="297.55 360.36 297.55 362.18 255.63 331.11 255.63 473.39 297.55 510.98 300.78 513.87 303.55 511.75 327.49 493.34 327.49 354.56"/>
					<linearGradient id="g" y2="346.85" gradientUnits="userSpaceOnUse" x2="279.59" y1="488.46" x1="279.59">
					<stop stop-color="#1E2226" offset="0"/>
					<stop stop-color="#353C43" offset="1"/>
				</linearGradient>
				<path fill="url(#g)" fill-rule="evenodd" clip-rule="evenodd" d="M267.3007812,466.4267578V346.8505859      l24.5712891,18.2099609v123.3994141C291.8720703,488.4599609,271.1835938,469.9072266,267.3007812,466.4267578"/>
					<linearGradient id="f" y2="367.75" gradientUnits="userSpaceOnUse" x2="311.77" y1="494.2" x1="311.77">
					<stop stop-color="#1E2226" offset="0"/>
					<stop stop-color="#353C43" offset="1"/>
				</linearGradient>
				<polygon fill="url(#f)" points="305.52 373.75 318.02 367.75 318.02 485.3 305.52 494.2" fill-rule="evenodd" clip-rule="evenodd"/>
				<polygon points="300.92 200.34 476.35 200.71 449.25 332.45 300.92 385.48" fill-rule="evenodd" clip-rule="evenodd"/>
					<linearGradient id="e" y2="292.14" gradientUnits="userSpaceOnUse" x2="460.38" y1="292.14" x1="308.66">
					<stop stop-color="#2B4578" offset="0"/>
					<stop stop-color="#A3BEDD" offset="1"/>
				</linearGradient>
				<path fill="url(#e)" fill-rule="evenodd" clip-rule="evenodd" d="M318.3994141,216.6157227      c22.2705078,0.0488281,115.3515625,0.2382812,141.9833984,0.2983398      c-5.1142578,24.8896484-19.1376953,93.0527344-21.6845703,105.4628906      c-12.21875,4.3710938-101.8769531,35.2294922-130.0371094,45.2919922      C308.6611328,337.3623047,318.3994141,238.8378906,318.3994141,216.6157227"/>
				<polygon points="123.5 154.05 340.6 242.92 307.52 383.25 123.5 254.34" fill-rule="evenodd" clip-rule="evenodd"/>
					<linearGradient id="d" y2="265.94" gradientUnits="userSpaceOnUse" x2="325.22" y1="265.94" x1="137.13">
					<stop stop-color="#2B4578" offset=".36810"/>
					<stop stop-color="#A3BEDD" offset="1"/>
				</linearGradient>
				<polygon fill="url(#d)" points="137.13 246.08 137.99 174 325.22 244.42 298.85 357.88" fill-rule="evenodd" clip-rule="evenodd"/>
				<path fill-rule="evenodd" clip-rule="evenodd" d="M409.0947266,314.4121094      c-13.9384766,13.265625-2.9160156,23.6367188-24.9951172,18.7304688      c-3.8486328-0.8554688-26.1679688-8.5859375-34.125-15.6972656      c-15.8964844-14.2070312-14.0361328-39.8666992,3.1552734-56.2319336      c12.1943359-11.6030273,29.0458984-15.6640625,43.328125-11.8100586      c5.8642578,1.5810547,27.3046875,7.9106445,31.8007812,12.1850586      C443.7119141,276.2768555,426.2861328,298.0405273,409.0947266,314.4121094L409.0947266,314.4121094z"/>
				<linearGradient id="c" y2="287.81" gradientUnits="userSpaceOnUse" x2="412.45" y1="287.81" x1="349.77">
					<stop stop-color="#0F1214" offset="0"/>
					<stop stop-color="#353C43" offset="1"/>
				</linearGradient>
				<path fill="url(#c)" fill-rule="evenodd" clip-rule="evenodd" d="M356.8408203,309.7050781      L356.8408203,309.7050781c-5.8427734-5.5566406-7.0703125-12.2524414-7.0703125-16.8969727      c0-8.3305664,3.9306641-16.8344727,10.7666016-23.3486328c7.0830078-6.7392578,16.5039062-10.6098633,25.8349609-10.6098633      c7.4707031,0,14.2167969,2.5073242,19.0107422,7.0698242c5.8427734,5.550293,7.0703125,12.2451172,7.0703125,16.8916016      c0,8.3291016-3.9160156,16.8383789-10.765625,23.3530273c-7.0820312,6.734375-16.4912109,10.6113281-25.8349609,10.6113281      C368.3818359,316.7753906,361.6347656,314.2539062,356.8408203,309.7050781"/>
				<path fill-rule="evenodd" clip-rule="evenodd" d="M431.2441406,322.1269531      c-17.1894531,16.359375-43.6572266,17.7226562-59.1083984,3.03125      c-15.4638672-14.6875-14.0478516-39.8637695,3.1533203-56.2294922      c17.2021484-16.371582,43.6679688-17.7333984,59.1210938-3.0390625      C449.8632812,280.5737305,448.4462891,305.7558594,431.2441406,322.1269531L431.2441406,322.1269531z"/>
				<polygon points="207.26 141.93 523.68 201.77 339.5 246.63 123.53 154.15" fill-rule="evenodd" clip-rule="evenodd"/>
					<linearGradient id="b" y2="191.27" gradientUnits="userSpaceOnUse" x2="466.19" y1="191.27" x1="142.52">
					<stop stop-color="#2B4578" offset="0"/>
					<stop stop-color="#A3BEDD" offset="1"/>
				</linearGradient>
				<polygon fill="url(#b)" points="207.99 151.67 466.19 202.15 340.72 230.87 142.52 160.98" fill-rule="evenodd" clip-rule="evenodd"/>
					<polygon points="227.8 233.62 193.61 286.25 197.79 288.89 232.4 235.62"/>
					<polygon points="203.94 223.25 172.69 271.44 176.88 274.08 208.54 225.25"/>
					<polygon points="180.19 212.93 151.71 256.38 155.9 259.02 184.79 214.93"/>
					<polygon fill="#0123B1" points="243.91 240.62 232.4 235.62 197.79 288.89 197.76 288.94 212.41 298.18 248.51 242.62"/>
					<polygon fill="#0123B1" points="220.04 230.25 208.54 225.25 176.88 274.08 176.84 274.13 191.49 283.37 224.64 232.25"/>
					<polygon fill="#0123B1" points="196.3 219.93 184.79 214.93 155.9 259.02 155.87 259.07 169.82 268.58 200.91 221.93"/>
			<radialGradient id="a" gradientUnits="userSpaceOnUse" cy="296.05" cx="404.14" r="26.195">
				<stop stop-color="#B9D6FE" offset=".50920"/>
				<stop stop-color="#0A6EF7" offset="1"/>
			</radialGradient>
			<path fill="url(#a)" fill-rule="evenodd" clip-rule="evenodd" d="M383.0742188,315.0585938     L383.0742188,315.0585938c-5.0712891-4.8232422-6.1376953-10.6347656-6.1376953-14.6679688     c0-7.2299805,3.4121094-14.612793,9.3466797-20.2675781c6.1484375-5.8500977,14.3261719-9.2104492,22.4257812-9.2104492     c6.4853516,0,12.3417969,2.1762695,16.5029297,6.1367188c5.0712891,4.8183594,6.1376953,10.6303711,6.1376953,14.6635742     c0,7.2299805-3.3994141,14.6181641-9.3457031,20.2724609c-6.1474609,5.8447266-14.3154297,9.2109375-22.4257812,9.2109375     C393.09375,321.1962891,387.2353516,319.0087891,383.0742188,315.0585938"/>
	</g>
</switch>
</svg>
