<?xml version="1.0" encoding="UTF-8" standalone="no"?>
<!-- Generator: Adobe Illustrator 15.0.2, SVG Export Plug-In . SVG Version: 6.00 Build 0)  -->
<!DOCTYPE svg  PUBLIC '-//W3C//DTD SVG 1.1//EN'  'http://www.w3.org/Graphics/SVG/1.1/DTD/svg11.dtd' [
	<!ENTITY ns_flows "http://ns.adobe.com/Flows/1.0/">
	<!ENTITY ns_extend "http://ns.adobe.com/Extensibility/1.0/">
	<!ENTITY ns_ai "http://ns.adobe.com/AdobeIllustrator/10.0/">
	<!ENTITY ns_graphs "http://ns.adobe.com/Graphs/1.0/">
	<!ENTITY ns_vars "http://ns.adobe.com/Variables/1.0/">
	<!ENTITY ns_imrep "http://ns.adobe.com/ImageReplacement/1.0/">
	<!ENTITY ns_sfw "http://ns.adobe.com/SaveForWeb/1.0/">
	<!ENTITY ns_custom "http://ns.adobe.com/GenericCustomNamespace/1.0/">
	<!ENTITY ns_adobe_xpath "http://ns.adobe.com/XPath/1.0/">
	<!ENTITY st0 "fill:url(#SVGID_1_);">
	<!ENTITY st1 "fill:url(#SVGID_2_);">
	<!ENTITY st2 "fill:url(#SVGID_3_);">
]>
<svg style="enable-background:new 0 0 600 600" xmlns="http://www.w3.org/2000/svg" xml:space="preserve" version="1.1" y="0px" x="0px" xmlns:xlink="http://www.w3.org/1999/xlink" viewBox="0 0 600 600">
<switch>
	<foreignObject y="0" x="0" height="1" width="1" requiredExtensions="http://ns.adobe.com/AdobeIllustrator/10.0/">
	</foreignObject>
	<g>
						<linearGradient id="c" y2="18.131" gradientUnits="userSpaceOnUse" x2="300" y1="581.87" x1="300">
						<stop stop-color="#FFD900" offset="0"/>
						<stop stop-color="#FEE116" offset=".50920"/>
						<stop stop-color="#FFEE07" offset=".50920"/>
						<stop stop-color="#FFF778" offset="1"/>
					</linearGradient>
					<path d="M300,581.8701172c-16.7211914,0-32.4389648-6.5107422-44.2563477-18.3320312       L36.4609375,344.2646484c-11.8217773-11.8212891-18.3325195-27.5410156-18.3325195-44.2617188       s6.5107422-32.4394531,18.3325195-44.2612305L255.7412109,36.4702148       C267.5625,24.6420898,283.2792969,18.1303711,300,18.1303711s32.4375,6.5117188,44.2539062,18.3359375l219.2841797,219.2753906       c11.8222656,11.8217773,18.3339844,27.5410156,18.3339844,44.2612305c0,16.7207031-6.5117188,32.4404297-18.3339844,44.2617188       L344.2578125,563.5351562C332.4384766,575.359375,316.7216797,581.8701172,300,581.8701172z" fill="url(#c)"/>
					<path d="M300,35.1303711c12.1777344,0,23.6240234,4.7421875,32.2373047,13.3608398l219.2802734,219.2719727       c8.6113281,8.6108398,13.3535156,20.0605469,13.3535156,32.2397461c0,12.1796875-4.7421875,23.6298828-13.3535156,32.2412109       L332.2314453,551.5195312c-8.6054688,8.609375-20.0517578,13.3505859-32.2314453,13.3505859       c-12.1791992,0-23.6269531-4.7421875-32.2382812-13.3554688L48.4824219,332.2451172       c-8.6113281-8.6113281-13.3540039-20.0625-13.3540039-32.2421875s4.7426758-23.6293945,13.3530273-32.2402344       L267.769043,48.4838867C276.3754883,39.8725586,287.8222656,35.1303711,300,35.1303711 M300,1.1303711       c-20.3710938,0-40.7421875,7.7729492-56.2792969,23.3188477L24.4404297,243.7207031       c-31.0825195,31.0820312-31.0825195,81.4824219,0,112.5654297l219.2802734,219.2705078       C259.2578125,591.0986328,279.6289062,598.8701172,300,598.8701172s40.7421875-7.7714844,56.2783203-23.3134766       l219.2802734-219.2705078c31.0839844-31.0830078,31.0839844-81.4833984,0-112.5654297L356.2783203,24.4492188       C340.7421875,8.9033203,320.3710938,1.1303711,300,1.1303711L300,1.1303711z"/>
							<linearGradient id="b" y2="79.775" gradientUnits="userSpaceOnUse" x2="300" y1="431.31" x1="300">
							<stop stop-color="#0F0F0F" offset="0"/>
							<stop stop-color="#353C43" offset=".41718"/>
							<stop stop-color="#0F0F0F" offset=".41718"/>
							<stop stop-color="#353C43" offset="1"/>
						</linearGradient>
						<path d="M195.2001953,431.3115234l-22.5854492-158.6171875l-13.4521484,11.8242188        l-10.7963867-4.0424805l112.7231445-103.2670898l-7.7412109-54.3686523l-8.6132812,7.7470703l-1.3950195-1.0527344        l56.2978516-49.7602539l57.0205078,49.7602539l-1.3779297,1.0527344l-8.7138672-7.7373047l-7.8916016,55.4140625        l112.9511719,102.1640625l-10.7041016,4.0854492L427.375,272.7583008l-22.5761719,158.5532227H195.2001953z         M300.0009766,336.6337891c-25.7905273,0-46.7724609,16.3095703-46.7724609,36.3574219v51.4472656h93.5458984v-51.4472656        C346.7744141,352.9433594,325.7919922,336.6337891,300.0009766,336.6337891z M296.5185547,308.7255859        c0.402832,6.671875,5.9599609,11.9775391,12.7324219,11.9775391c7.0166016,0,12.7285156-5.6943359,12.7558594-12.7050781        c8.3769531-1.0644531,14.2080078-3.3691406,18.1796875-7.1508789l0.7001953-0.6669922l0.2578125-0.9316406        c0.4150391-1.4931641,1.2773438-4.5996094,1.8730469-7.1948242l0.4101562-1.784668l-1.2333984-1.3544922        c-11.6357422-12.7841797-10.6689453-17.0449219-9.2060547-23.4946289        c0.7822266-3.4477539,1.7558594-7.7387695,0.9951172-13.5966797        c-1.6181641-12.4697266-8.0488281-21.9550781-17.8642578-26.6049805        c0.6328125-1.7504883,0.9589844-3.6044922,0.9589844-5.4995117c0-8.9555664-7.2861328-16.2412109-16.2421875-16.2412109        c-8.9550781,0-16.2402344,7.2856445-16.2402344,16.2412109c0,1.6572266,0.2524414,3.2910156,0.7431641,4.8525391        c-10.6523438,4.3603516-17.6123047,14.0820312-19.3212891,27.2514648        c-0.7607422,5.8583984,0.2128906,10.1499023,0.9951172,13.5976562        c1.4628906,6.449707,2.4291992,10.7104492-9.206543,23.4941406l-1.2319336,1.3540039l0.4086914,1.7841797        c0.5454102,2.3779297,1.2880859,5.0966797,1.8740234,7.199707l0.2592773,0.9291992l0.6987305,0.6655273        c7.2895508,6.9418945,20.1606445,7.8989258,32.9833984,7.8989258        C294.0400391,308.7460938,295.2822266,308.7373047,296.5185547,308.7255859z M322.5761719,163.7021484l4.2119141-29.5825195        l-27.3217773-25.1416016l-26.3320312,25.184082l4.03125,28.3183594l21.8886719-20.0522461L322.5761719,163.7021484z" fill="url(#b)"/>
						<path d="M299.6523438,84.4326172l43.4501953,37.9179688l-0.9189453,6.4545898l-6.7109375,47.1240234        l-0.5244141,3.6826172l2.7587891,2.4956055l107.3369141,97.0864258l-3.4121094,1.3022461l-7.109375-6.1694336        l-9.7060547-8.4233398l-1.8115234,12.7231445l-21.2431641,149.1850586h-33.2509766h-18.2363281v-6.8730469v-47.9472656        c0-11.0175781-5.4833984-21.2480469-15.4414062-28.8095703c-9.3837891-7.1240234-21.7539062-11.0478516-34.8320312-11.0478516        c-13.0786133,0-25.4487305,3.9238281-34.831543,11.0488281c-9.9570312,7.5605469-15.440918,17.7910156-15.440918,28.8085938        v47.9472656v6.8730469h-16.8056641h-34.6860352l-21.2441406-149.2006836l-1.8251953-12.8193359l-9.7260742,8.5483398        l-7.0151367,6.1655273l-3.4863281-1.3051758l107.152832-98.1635742l2.7216797-2.4936523l-0.5200195-3.6547852        l-6.5556641-46.0429688l-0.9316406-6.5429688L299.6523438,84.4326172 M274.6362305,169.5449219l9.7875977-8.9667969        l14.6455078-13.4169922l16.2744141,14.71875l9.7685547,8.8354492l1.8564453-13.0400391l3.0244141-21.2397461        l0.5195312-3.6450195l-2.7089844-2.4926758l-23.5507812-21.671875l-4.8325195-4.4467773l-4.7460938,4.5390625        l-22.6601562,21.671875l-2.5986328,2.4853516l0.5068359,3.5600586l2.8427734,19.9677734L274.6362305,169.5449219         M281.3022461,222.5703125c-10.3183594,5.2885742-17.0214844,15.4404297-18.7558594,28.8017578        c-0.840332,6.4760742,0.2094727,11.1040039,1.0527344,14.8227539        c1.3061523,5.7583008,2.0258789,8.9301758-8.3813477,20.3637695l-2.4643555,2.7075195l0.8183594,3.5683594        c0.5610352,2.4477539,1.3173828,5.2177734,1.9135742,7.3574219l0.5180664,1.8588867l1.3974609,1.3310547        c8.1806641,7.7910156,21.8476562,8.8642578,35.3979492,8.8642578c0.2573242,0,0.5151367,0,0.7724609-0.0009766        c1.8891602,6.8847656,8.203125,11.9580078,15.6796875,11.9580078c7.8994141,0,14.5009766-5.6630859,15.9570312-13.1425781        c7.7158203-1.3154297,13.3291016-3.8105469,17.3916016-7.6787109L344,302.0478516l0.5175781-1.8632812        c0.4208984-1.5170898,1.2978516-4.6743164,1.9111328-7.347168l0.8203125-3.5698242l-2.4658203-2.7089844        c-10.4072266-11.434082-9.6884766-14.605957-8.3818359-20.3642578        c0.84375-3.7182617,1.8935547-8.3461914,1.0527344-14.8217773        c-1.6337891-12.5883789-7.7841797-22.4296875-17.2246094-27.9458008        c0.2314453-1.2128906,0.3486328-2.453125,0.3486328-3.7080078c0-10.8852539-8.8564453-19.7412109-19.7421875-19.7412109        c-10.8847656,0-19.7402344,8.855957-19.7402344,19.7412109        C281.0957031,220.6777344,281.1650391,221.6308594,281.3022461,222.5703125 M299.6230469,75.1162109l-61.8095703,54.6318359        l7.1162109,5.371582l5.8789062-5.2875977L257.3642578,175.875L141.7919922,281.7519531l18.1064453,6.7792969        l10.1640625-8.9335938l22.1005859,155.2138672h40.7597656h23.8056641h86.5458984h25.2363281h39.3251953        l22.0986328-155.1982422l10.2763672,8.9179688l17.9970703-6.8691406L342.4023438,176.9160156l6.7109375-47.1240234        l6,5.3276367l7.0742188-5.4047852L299.6230469,75.1162109L299.6230469,75.1162109z M279.6953125,155.4165039        l-2.8427734-19.9677734l22.6601562-21.671875l23.5507812,21.671875l-3.0244141,21.2397461l-21-18.9931641        L279.6953125,155.4165039L279.6953125,155.4165039z M292.7988281,305.2460938        c-12.0947266,0-24.1601562-0.8291016-30.5703125-6.9335938c-0.4785156-1.7167969-1.2753906-4.6054688-1.8339844-7.0419922        c19.1445312-21.0332031,7.0195312-23.0195312,9.09375-38.9970703        c1.9482422-15.0097656,10.7421875-22.9814453,20.6601562-25.6328125        c-1.2939453-1.9941406-2.0527344-4.3671875-2.0527344-6.921875c0-7.0366211,5.703125-12.7412109,12.7402344-12.7412109        c7.0380859,0,12.7421875,5.7045898,12.7421875,12.7412109c0,2.7314453-0.8662109,5.2558594-2.3291016,7.3300781        c9.3359375,3.0078125,17.4072266,10.921875,19.2636719,25.2246094        c2.0732422,15.9775391-10.0507812,17.9638672,9.09375,38.9970703        c-0.5595703,2.4365234-1.3574219,5.3251953-1.8339844,7.0419922        c-4.4765625,4.2626953-11.7167969,5.9453125-19.7939453,6.578125        c0.3359375,0.9580078,0.5283203,1.9833984,0.5283203,3.0576172c0,5.109375-4.1435547,9.2548828-9.2558594,9.2548828        s-9.2558594-4.1455078-9.2558594-9.2548828c0-0.9628906,0.1474609-1.8886719,0.4189453-2.7617188        c-0.1386719-0.0009766-0.2773438-0.0019531-0.4140625-0.0039062        C297.628418,305.2128906,295.2128906,305.2460938,292.7988281,305.2460938L292.7988281,305.2460938z M256.7285156,420.9384766        v-47.9472656c0-18.1474609,19.3730469-32.8574219,43.2724609-32.8574219s43.2734375,14.7099609,43.2734375,32.8574219        v47.9472656H256.7285156L256.7285156,420.9384766z"/>
							<linearGradient id="a" y2="216.73" gradientUnits="userSpaceOnUse" x2="300.84" y1="222.71" x1="300.84">
							<stop stop-color="#0F0F0F" offset="0"/>
							<stop stop-color="#353C43" offset=".41718"/>
							<stop stop-color="#0F0F0F" offset=".41718"/>
							<stop stop-color="#353C43" offset="1"/>
						</linearGradient>
						<path d="M300.8359375,222.7099609c-1.6489258,0-2.9902344-1.3417969-2.9902344-2.9912109        c0-1.6489258,1.3413086-2.9907227,2.9902344-2.9907227c1.6494141,0,2.9921875,1.3417969,2.9921875,2.9907227        C303.828125,221.3681641,302.4853516,222.7099609,300.8359375,222.7099609z" fill="url(#a)"/>
						<path d="M300.8359375,213.2280273c-3.5849609,0-6.4902344,2.9057617-6.4902344,6.4907227        s2.9052734,6.4912109,6.4902344,6.4912109c3.5869141,0,6.4921875-2.90625,6.4921875-6.4912109        S304.4228516,213.2280273,300.8359375,213.2280273L300.8359375,213.2280273z"/>
	</g>
</switch>
</svg>
